"tmc","road","direction","intersection","state","county","zip","start_latitude","start_longitude","end_latitude","end_longitude","miles","road_order","timezone_name","type","country","tmclinear","frc","border_set","f_system","urban_code","faciltype","structype","thrulanes","route_numb","route_sign","route_qual","altrtename","aadt","aadt_singl","aadt_combi","nhs","nhs_pct","strhnt_typ","strhnt_pct","truck","isprimary","active_start_date","active_end_date"
"112+05030","I-35","NORTHBOUND","TX-45 TOLL/EXIT 223","TX","HAYS",78610,30.0887404,-97.8185894,30.0991422,-97.813071,0.791049,256,"America/Chicago","P1","USA",95,1,"N",1,4384,2,NA,6,35,2,1,35,130093,4423,11318,1,100,1,100,1,1,"2018-01-01 00:00:00-05:00","2019-01-01 00:00:00-05:00"
"112P05030","I-35","NORTHBOUND","TX-45 TOLL/EXIT 223","TX","TRAVIS",78747,30.0991422,-97.813071,30.126095,-97.801391,1.989251,257,"America/Chicago","P1","USA",95,1,"N",1,4384,2,NA,6,35,2,1,35,130883,4388,11325,1,100,1,100,1,1,"2018-01-01 00:00:00-05:00","2019-01-01 00:00:00-05:00"
"112+05031","I-35","NORTHBOUND","ONION CREEK PKWY/EXIT 225","TX","TRAVIS",78747,30.126095,-97.801391,30.1274112,-97.8008708,0.096095,258,"America/Chicago","P1","USA",95,1,"N",1,4384,2,NA,6,35,2,1,35,131763,4348,11332,1,100,1,100,1,1,"2018-01-01 00:00:00-05:00","2019-01-01 00:00:00-05:00"
"112P05031","I-35","NORTHBOUND","ONION CREEK PKWY/EXIT 225","TX","TRAVIS",78747,30.1274112,-97.8008708,30.1369318,-97.7971524,0.694252,259,"America/Chicago","P1","USA",95,1,"N",1,4384,2,NA,6,35,2,1,35,131763,4348,11332,1,100,1,100,1,1,"2018-01-01 00:00:00-05:00","2019-01-01 00:00:00-05:00"
"112+05032","I-35","NORTHBOUND","E FM-1626/CROWN COLONY DR","TX","TRAVIS",78747,30.1369318,-97.7971524,30.138272,-97.7965952,0.098413,260,"America/Chicago","P1","USA",95,1,"N",1,4384,2,NA,6,35,2,1,35,128695,4247,12480,1,100,1,100,1,1,"2018-01-01 00:00:00-05:00","2019-01-01 00:00:00-05:00"
"112P05032","I-35","NORTHBOUND","E FM-1626/CROWN COLONY DR","TX","TRAVIS",78747,30.138272,-97.7965952,30.1457758,-97.7938292,0.544104,261,"America/Chicago","P1","USA",95,1,"N",1,4384,2,NA,6,35,2,1,35,124973,4124,13872,1,100,1,100,1,1,"2018-01-01 00:00:00-05:00","2019-01-01 00:00:00-05:00"
"112+05033","I-35","NORTHBOUND","BRANDT RD","TX","TRAVIS",78747,30.1457758,-97.7938292,30.1542588,-97.7910908,0.608633,262,"America/Chicago","P1","USA",95,1,"N",1,4384,2,NA,6,35,2,1,35,124973,4124,13872,1,100,1,100,1,1,"2018-01-01 00:00:00-05:00","2019-01-01 00:00:00-05:00"
"112P05033","I-35","NORTHBOUND","BRANDT RD","TX","TRAVIS",78744,30.1542588,-97.7910908,30.1630454,-97.7881666,0.63217,263,"America/Chicago","P1","USA",95,1,"N",1,4384,2,NA,6,35,2,1,35,124973,4124,13872,1,100,1,100,1,1,"2018-01-01 00:00:00-05:00","2019-01-01 00:00:00-05:00"
"112+05034","I-35","NORTHBOUND","SLAUGHTER LN/EXIT 226","TX","TRAVIS",78747,30.153534,-97.791293,30.1542588,-97.7910908,0.051505,264,"America/Chicago","P1","USA",95,1,"N",1,4384,2,NA,6,35,2,1,35,124973,4124,13872,1,100,1,100,1,1,"2018-01-01 00:00:00-05:00","2019-01-01 00:00:00-05:00"
"112P05034","I-35","NORTHBOUND","SLAUGHTER LN/EXIT 226","TX","TRAVIS",78744,30.1542588,-97.7910908,30.168547,-97.784912,1.0595,265,"America/Chicago","P1","USA",95,1,"N",1,4384,2,NA,6,35,2,1,35,127725,4184,13706,1,100,1,100,1,1,"2018-01-01 00:00:00-05:00","2019-01-01 00:00:00-05:00"
"112+05035","I-35","NORTHBOUND","WILLIAM CANNON DR/EXIT 228","TX","TRAVIS",78744,30.168547,-97.784912,30.181861,-97.7761566,1.058039,266,"America/Chicago","P1","USA",95,1,"N",1,4384,2,NA,6,35,2,1,35,152607,4731,12209,1,100,1,100,1,1,"2018-01-01 00:00:00-05:00","2019-01-01 00:00:00-05:00"
"112P05035","I-35","NORTHBOUND","WILLIAM CANNON DR/EXIT 228","TX","TRAVIS",78744,30.181861,-97.7761566,30.1937318,-97.7677244,0.963231,267,"America/Chicago","P1","USA",95,1,"N",1,4384,2,NA,6,35,2,1,35,159438,4841,12501,1,100,1,100,1,1,"2018-01-01 00:00:00-05:00","2019-01-01 00:00:00-05:00"
"112+05036","I-35","NORTHBOUND","STASSNEY LN","TX","TRAVIS",78744,30.1937318,-97.7677244,30.1983442,-97.7639912,0.38896,268,"America/Chicago","P1","USA",95,1,"N",1,4384,2,NA,6,35,2,1,35,176228,5111,13217,1,100,1,100,1,1,"2018-01-01 00:00:00-05:00","2019-01-01 00:00:00-05:00"
"112P05036","I-35","NORTHBOUND","STASSNEY LN","TX","TRAVIS",78744,30.1983442,-97.7639912,30.198438,-97.763921,0.007717,269,"America/Chicago","P1","USA",95,1,"N",1,4384,2,NA,6,35,2,1,35,176228,5111,13217,1,100,1,100,1,1,"2018-01-01 00:00:00-05:00","2019-01-01 00:00:00-05:00"
"112+05037","I-35","NORTHBOUND","SHELBY LN/ST ELMO RD/EXIT 230","TX","TRAVIS",78744,30.198438,-97.763921,30.2014168,-97.7614634,0.252786,270,"America/Chicago","P1","USA",95,1,"N",1,4384,2,NA,6,35,2,1,35,176228,5111,13217,1,100,1,100,1,1,"2018-01-01 00:00:00-05:00","2019-01-01 00:00:00-05:00"
"112P05037","I-35","NORTHBOUND","SHELBY LN/ST ELMO RD/EXIT 230","TX","TRAVIS",78744,30.2014168,-97.7614634,30.214401,-97.752357,1.050421,273,"America/Chicago","P1","USA",95,1,"N",1,4384,2,NA,6,35,2,1,35,156617,4802,12398,1,100,1,100,1,1,"2018-01-01 00:00:00-05:00","2019-01-01 00:00:00-05:00"
"112+05038","I-35","NORTHBOUND","TX-71/BEN WHITE BLVD/EXIT 230","TX","TRAVIS",78744,30.214401,-97.752357,30.215564,-97.751661,0.090453,274,"America/Chicago","P1","USA",95,1,"N",1,4384,2,NA,6,35,2,1,35,153175,4748,12254,1,100,1,100,1,1,"2018-01-01 00:00:00-05:00","2019-01-01 00:00:00-05:00"
"112P05038","I-35","NORTHBOUND","TX-71/BEN WHITE BLVD/EXIT 230","TX","TRAVIS",78741,30.215564,-97.751661,30.216865,-97.750887,0.101054,275,"America/Chicago","P1","USA",95,1,"N",1,4384,2,NA,6,35,2,1,35,156693,5498,12536,1,100,1,100,1,1,"2018-01-01 00:00:00-05:00","2019-01-01 00:00:00-05:00"
"112+05039","I-35","NORTHBOUND","WOODWARD ST","TX","TRAVIS",78741,30.216865,-97.750887,30.2232068,-97.7472852,0.488118,276,"America/Chicago","P1","USA",95,1,"N",1,4384,2,NA,6,35,2,1,35,162071,6645,12966,1,100,1,100,1,1,"2018-01-01 00:00:00-05:00","2019-01-01 00:00:00-05:00"
"112+05040","I-35","NORTHBOUND","OLTORF ST/EXIT 232","TX","TRAVIS",78741,30.2232068,-97.7472852,30.226001,-97.7456848,0.215386,277,"America/Chicago","P1","USA",95,1,"N",1,4384,2,NA,6,35,2,1,35,162071,6645,12966,1,100,1,100,1,1,"2018-01-01 00:00:00-05:00","2019-01-01 00:00:00-05:00"
"112P05040","I-35","NORTHBOUND","OLTORF ST/EXIT 232","TX","TRAVIS",78741,30.226001,-97.7456848,30.234149,-97.740823,0.633314,278,"America/Chicago","P1","USA",95,1,"N",1,4384,2,NA,6,35,2,1,35,161997,6643,12962,1,100,1,100,1,1,"2018-01-01 00:00:00-05:00","2019-01-01 00:00:00-05:00"
"112+05041","I-35","NORTHBOUND","WOODLAND AVE","TX","TRAVIS",78704,30.234149,-97.740823,30.240851,-97.736858,0.519969,279,"America/Chicago","P1","USA",95,1,"N",1,4384,2,NA,6,35,2,1,35,152792,6417,12529,1,100,1,100,1,1,"2018-01-01 00:00:00-05:00","2019-01-01 00:00:00-05:00"
"112+05042","I-35","NORTHBOUND","RIVERSIDE DR/EXIT 233","TX","TRAVIS",78741,30.240851,-97.736858,30.2433012,-97.735424,0.189673,280,"America/Chicago","P1","USA",95,1,"N",1,4384,2,NA,6,35,2,1,35,152792,6417,12529,1,100,1,100,1,1,"2018-01-01 00:00:00-05:00","2019-01-01 00:00:00-05:00"
"112P05042","I-35","NORTHBOUND","RIVERSIDE DR/EXIT 233","TX","TRAVIS",78741,30.2433012,-97.735424,30.254618,-97.736671,0.796486,281,"America/Chicago","P1","USA",95,1,"N",1,4384,2,NA,6,35,2,1,35,147478,6273,12331,1,100,1,100,1,1,"2018-01-01 00:00:00-05:00","2019-01-01 00:00:00-05:00"
"112+05043","I-35","NORTHBOUND","CESAR CHAVEZ ST/1ST ST/EXIT 234","TX","TRAVIS",78701,30.254618,-97.736671,30.255889,-97.736892,0.088788,282,"America/Chicago","P1","USA",95,1,"N",1,4384,2,NA,6,35,2,1,35,143178,6157,12170,1,100,1,100,1,1,"2018-01-01 00:00:00-05:00","2019-01-01 00:00:00-05:00"
"112P05043","I-35","NORTHBOUND","CESAR CHAVEZ ST/1ST ST/EXIT 234","TX","TRAVIS",78702,30.255889,-97.736892,30.2638998,-97.7352268,0.569107,283,"America/Chicago","P1","USA",95,1,"N",1,4384,2,NA,6,35,2,1,35,147473,6249,12350,1,100,1,100,1,1,"2018-01-01 00:00:00-05:00","2019-01-01 00:00:00-05:00"
"112+05044","I-35","NORTHBOUND","7TH ST/EXIT 234","TX","TRAVIS",78701,30.2638998,-97.7352268,30.2639994,-97.735191,0.007202,284,"America/Chicago","P1","USA",95,1,"N",1,4384,2,1,6,35,2,1,35,157847,6472,12786,1,100,1,100,1,1,"2018-01-01 00:00:00-05:00","2019-01-01 00:00:00-05:00"
"112P05044","I-35","NORTHBOUND","7TH ST/EXIT 234","TX","TRAVIS",78701,30.2639994,-97.735191,30.2673882,-97.7339254,0.246007,285,"America/Chicago","P1","USA",95,1,"N",1,4384,2,NA,6,35,2,1,35,157847,6472,12786,1,100,1,100,1,1,"2018-01-01 00:00:00-05:00","2019-01-01 00:00:00-05:00"
"112+05045","I-35","NORTHBOUND","8TH ST/EXIT 234","TX","TRAVIS",78701,30.2673882,-97.7339254,30.267579,-97.7338526,0.013875,286,"America/Chicago","P1","USA",95,1,"N",1,4384,2,NA,6,35,2,1,35,176712,6892,13607,1,100,1,100,1,1,"2018-01-01 00:00:00-05:00","2019-01-01 00:00:00-05:00"
"112P05045","I-35","NORTHBOUND","8TH ST/EXIT 234","TX","TRAVIS",78701,30.267579,-97.7338526,30.27069,-97.732721,0.225278,287,"America/Chicago","P1","USA",95,1,"N",1,4384,2,NA,6,35,2,1,35,176712,6892,13607,1,100,1,100,1,1,"2018-01-01 00:00:00-05:00","2019-01-01 00:00:00-05:00"
"112+05046","I-35","NORTHBOUND","12TH ST/15TH ST/EXIT 234-235","TX","TRAVIS",78702,30.27069,-97.732721,30.27152,-97.732423,0.060024,288,"America/Chicago","P1","USA",95,1,"N",1,4384,2,1,8,35,2,1,35,176712,6892,13607,1,100,1,100,1,1,"2018-01-01 00:00:00-05:00","2019-01-01 00:00:00-05:00"
"112P05046","I-35","NORTHBOUND","12TH ST/15TH ST/EXIT 234-235","TX","TRAVIS",78702,30.27152,-97.732423,30.2761574,-97.7308948,0.333198,289,"America/Chicago","P1","USA",95,1,"N",1,4384,2,NA,8,35,2,1,35,176712,6892,13607,1,100,1,100,1,1,"2018-01-01 00:00:00-05:00","2019-01-01 00:00:00-05:00"
"112+05047","I-35","NORTHBOUND","MARTIN LUTHER KING BLVD/19TH ST/EXIT 235","TX","TRAVIS",78702,30.2761574,-97.7308948,30.278178,-97.729973,0.150061,290,"America/Chicago","P1","USA",95,1,"N",1,4384,2,NA,8,35,2,1,35,176712,6892,13607,1,100,1,100,1,1,"2018-01-01 00:00:00-05:00","2019-01-01 00:00:00-05:00"
"112P05047","I-35","NORTHBOUND","MARTIN LUTHER KING BLVD/19TH ST/EXIT 235","TX","TRAVIS",78705,30.278178,-97.729973,30.28271,-97.727214,0.354039,290.001,"America/Chicago","P1.3","USA",NA,1,"",NA,NA,NA,NA,NA,NA,NA,NA,NA,NA,NA,NA,NA,NA,NA,NA,NA,NA,"2018-01-01 00:00:00-05:00","2019-01-01 00:00:00-05:00"
"112P04895","I-35","NORTHBOUND","MARTIN LUTHER KING BLVD/19TH ST/EXIT 235A","TX","TRAVIS",78702,30.27152,-97.732423,30.28271,-97.727214,0.837297,297,"America/Chicago","P1","USA",112,1,"N",1,4384,2,NA,8,35,2,1,35,176712,6892,13607,-1,58,1,58,1,0,"2018-01-01 00:00:00-05:00","2019-01-01 00:00:00-05:00"
"112+04896","I-35","NORTHBOUND","MANOR RD (OVERPASS)","TX","TRAVIS",78705,30.28271,-97.727214,30.282978,-97.727046,0.021052,298,"America/Chicago","P1.3","USA",NA,1,"",NA,NA,NA,NA,NA,NA,NA,NA,NA,NA,NA,NA,NA,NA,NA,NA,NA,NA,"2018-01-01 00:00:00-05:00","2019-01-01 00:00:00-05:00"
"112+04897","I-35","NORTHBOUND","26TH ST (OVERPASS)","TX","TRAVIS",78705,30.282978,-97.727046,30.286429,-97.724785,0.273913,299,"America/Chicago","P1.3","USA",NA,1,"",NA,NA,NA,NA,NA,NA,NA,NA,NA,NA,NA,NA,NA,NA,NA,NA,NA,NA,"2018-01-01 00:00:00-05:00","2019-01-01 00:00:00-05:00"
"112P04897","I-35","NORTHBOUND","26TH ST (OVERPASS)","TX","TRAVIS",78705,30.286429,-97.724785,30.286552,-97.724708,0.009656,300,"America/Chicago","P1.3","USA",NA,1,"",NA,NA,NA,NA,NA,NA,NA,NA,NA,NA,NA,NA,NA,NA,NA,NA,NA,NA,"2018-01-01 00:00:00-05:00","2019-01-01 00:00:00-05:00"
"112+04898","I-35","NORTHBOUND","E 38 1/2 ST (OVERPASS)","TX","TRAVIS",78722,30.286552,-97.724708,30.29476,-97.71945,0.647997,301,"America/Chicago","P1.3","USA",NA,1,"",NA,NA,NA,NA,NA,NA,NA,NA,NA,NA,NA,NA,NA,NA,NA,NA,NA,NA,"2018-01-01 00:00:00-05:00","2019-01-01 00:00:00-05:00"
"112+04899","I-35","NORTHBOUND","HANCOCK CENTER ACCESS (OVERPASS)","TX","TRAVIS",78722,30.29476,-97.71945,30.298409,-97.717142,0.287235,302,"America/Chicago","P1.3","USA",NA,1,"",NA,NA,NA,NA,NA,NA,NA,NA,NA,NA,NA,NA,NA,NA,NA,NA,NA,NA,"2018-01-01 00:00:00-05:00","2019-01-01 00:00:00-05:00"
"112P04899","I-35","NORTHBOUND","HANCOCK CENTER ACCESS (OVERPASS)","TX","TRAVIS",78722,30.298409,-97.717142,30.298756,-97.716932,0.027048,303,"America/Chicago","P1.3","USA",NA,1,"",NA,NA,NA,NA,NA,NA,NA,NA,NA,NA,NA,NA,NA,NA,NA,NA,NA,NA,"2018-01-01 00:00:00-05:00","2019-01-01 00:00:00-05:00"
"112+04900","I-35","NORTHBOUND","AIRPORT BLVD/EXIT 237","TX","TRAVIS",78722,30.298756,-97.716932,30.2995648,-97.7164304,0.06338,304,"America/Chicago","P1.3","USA",NA,1,"",NA,NA,NA,NA,NA,NA,NA,NA,NA,NA,NA,NA,NA,NA,NA,NA,NA,NA,"2018-01-01 00:00:00-05:00","2019-01-01 00:00:00-05:00"
"112P04900","I-35","NORTHBOUND","AIRPORT BLVD/EXIT 237","TX","TRAVIS",78723,30.2995648,-97.7164304,30.30761,-97.711433,0.631046,305,"America/Chicago","P1","USA",112,1,"N",1,4384,2,NA,8,35,2,1,35,195633,7434,14476,1,67,1,67,1,1,"2018-01-01 00:00:00-05:00","2019-01-01 00:00:00-05:00"
"112P04757","I-35","NORTHBOUND","AIRPORT BLVD/EXIT 236-237","TX","TRAVIS",78722,30.2995648,-97.7164304,30.3033492,-97.714191,0.293853,306,"America/Chicago","P1","USA",113,1,"N",1,4384,2,NA,8,35,2,1,35,195666,7434,14478,1,28,1,28,1,1,"2018-01-01 00:00:00-05:00","2019-01-01 00:00:00-05:00"
"112+04758","I-35","NORTHBOUND","51ST ST/CAMERON RD/EXIT 237","TX","TRAVIS",78723,30.3033492,-97.714191,30.3094376,-97.7102462,0.481942,307,"America/Chicago","P1","USA",113,1,"N",1,4384,2,NA,8,35,2,1,35,195625,7434,14476,1,100,1,100,1,1,"2018-01-01 00:00:00-05:00","2019-01-01 00:00:00-05:00"
"112+04759","I-35","NORTHBOUND","US-290/EXIT 238","TX","TRAVIS",78723,30.3094376,-97.7102462,30.3165712,-97.7074664,0.523617,308,"America/Chicago","P1","USA",113,1,"N",1,4384,2,NA,8,35,2,1,35,193233,7343,14299,1,100,1,100,1,1,"2018-01-01 00:00:00-05:00","2019-01-01 00:00:00-05:00"
"112P04759","I-35","NORTHBOUND","US-290/EXIT 238","TX","TRAVIS",78723,30.3165712,-97.7074664,30.3219096,-97.7066972,0.371636,309,"America/Chicago","P1","USA",113,1,"N",1,4384,2,NA,8,35,2,1,35,192945,7332,14278,1,100,1,100,1,1,"2018-01-01 00:00:00-05:00","2019-01-01 00:00:00-05:00"
"112+04760","I-35","NORTHBOUND","US-183/EXIT 239-240","TX","TRAVIS",78752,30.3219096,-97.7066972,30.3348634,-97.7026794,0.936102,310,"America/Chicago","P1","USA",113,1,"N",1,4384,2,NA,8,35,2,1,35,198371,7350,14679,1,100,1,100,1,1,"2018-01-01 00:00:00-05:00","2019-01-01 00:00:00-05:00"
"112P04760","I-35","NORTHBOUND","US-183/EXIT 239-240","TX","TRAVIS",78752,30.3348634,-97.7026794,30.339923,-97.699493,0.397858,311,"America/Chicago","P1","USA",113,1,"N",1,4384,2,NA,8,35,2,1,35,191843,7206,14394,1,100,1,100,1,1,"2018-01-01 00:00:00-05:00","2019-01-01 00:00:00-05:00"
"112+04761","I-35","NORTHBOUND","RUNDBERG LN","TX","TRAVIS",78753,30.339923,-97.699493,30.3581344,-97.688014,1.432179,312,"America/Chicago","P1","USA",113,1,"N",1,4384,2,NA,6,35,2,1,35,144013,6193,12241,1,100,1,100,1,1,"2018-01-01 00:00:00-05:00","2019-01-01 00:00:00-05:00"
"112P04761","I-35","NORTHBOUND","RUNDBERG LN","TX","TRAVIS",78753,30.3581344,-97.688014,30.3582136,-97.6879642,0.006226,313,"America/Chicago","P1","USA",113,1,"N",1,4384,2,NA,6,35,2,1,35,144013,6193,12241,1,100,1,100,1,1,"2018-01-01 00:00:00-05:00","2019-01-01 00:00:00-05:00"
"112+04762","I-35","NORTHBOUND","BRAKER LN","TX","TRAVIS",78753,30.3582136,-97.6879642,30.376995,-97.676032,1.47964,314,"America/Chicago","P1","USA",113,1,"N",1,4384,2,NA,6,35,2,1,35,137438,6044,11950,1,100,1,100,1,1,"2018-01-01 00:00:00-05:00","2019-01-01 00:00:00-05:00"
"112P04762","I-35","NORTHBOUND","BRAKER LN","TX","TRAVIS",78753,30.376995,-97.676032,30.377087,-97.675977,0.007152,315,"America/Chicago","P1","USA",113,1,"N",1,4384,2,NA,6,35,2,1,35,137266,6040,11942,1,100,1,100,1,1,"2018-01-01 00:00:00-05:00","2019-01-01 00:00:00-05:00"
"112+04763","I-35","NORTHBOUND","BERRYWOOD DR/MEADOW LARK AVE","TX","TRAVIS",78753,30.377087,-97.675977,30.379144,-97.674843,0.15748,316,"America/Chicago","P1","USA",113,1,"N",1,4384,2,NA,6,35,2,1,35,152018,6353,12555,1,100,1,100,1,1,"2018-01-01 00:00:00-05:00","2019-01-01 00:00:00-05:00"
"112+04764","I-35","NORTHBOUND","YAGER LN","TX","TRAVIS",78753,30.38391,-97.673445,30.3971782,-97.6723466,0.934206,317,"America/Chicago","P1","USA",113,1,"N",1,4384,2,NA,6,35,2,1,35,158122,6483,12808,1,100,1,100,1,1,"2018-01-01 00:00:00-05:00","2019-01-01 00:00:00-05:00"
"112P04763","I-35","NORTHBOUND","BERRYWOOD DR/MEADOW LARK AVE","TX","TRAVIS",78753,30.379144,-97.674843,30.38391,-97.673445,0.340076,317.001,"America/Chicago","P1","USA",113,1,"N",1,4384,2,NA,6,35,2,1,35,158122,6483,12808,1,100,1,100,1,1,"2018-01-01 00:00:00-05:00","2019-01-01 00:00:00-05:00"
"112+04765","I-35","NORTHBOUND","PARMER LN/EXIT 245","TX","TRAVIS",78753,30.399778,-97.673659,30.407884,-97.674563,0.574358,318,"America/Chicago","P1","USA",113,1,"N",1,4384,2,NA,6,35,2,1,35,158122,6483,12808,1,100,1,100,1,1,"2018-01-01 00:00:00-05:00","2019-01-01 00:00:00-05:00"
"112P04764","I-35","NORTHBOUND","YAGER LN","TX","TRAVIS",78753,30.3971782,-97.6723466,30.399778,-97.673659,0.195949,318.001,"America/Chicago","P1","USA",113,1,"N",1,4384,2,NA,6,35,2,1,35,158122,6483,12808,1,100,1,100,1,1,"2018-01-01 00:00:00-05:00","2019-01-01 00:00:00-05:00"
"112P04765","I-35","NORTHBOUND","PARMER LN/EXIT 245","TX","TRAVIS",78753,30.407884,-97.674563,30.408011,-97.674539,0.008892,319,"America/Chicago","P1","USA",113,1,"N",1,4384,2,NA,6,35,2,1,35,158122,6483,12808,1,100,1,100,1,1,"2018-01-01 00:00:00-05:00","2019-01-01 00:00:00-05:00"
"112+04766","I-35","NORTHBOUND","HOWARD LN/EXIT 246","TX","TRAVIS",78753,30.408011,-97.674539,30.42429,-97.671442,1.139601,320,"America/Chicago","P1","USA",113,1,"N",1,4384,2,NA,6,35,2,1,35,136386,6057,11860,1,100,1,100,1,1,"2018-01-01 00:00:00-05:00","2019-01-01 00:00:00-05:00"
"112P04766","I-35","NORTHBOUND","HOWARD LN/EXIT 246","TX","TRAVIS",78753,30.42429,-97.671442,30.424404,-97.671425,0.007941,321,"America/Chicago","P1","USA",113,1,"N",1,4384,2,NA,6,35,2,1,35,133193,5994,11721,1,100,1,100,1,1,"2018-01-01 00:00:00-05:00","2019-01-01 00:00:00-05:00"
"112+04767","I-35","NORTHBOUND","WELLS BRANCH PKWY/EXIT 248","TX","TRAVIS",78660,30.424404,-97.671425,30.4404842,-97.6684078,1.125297,322,"America/Chicago","P1","USA",113,1,"N",1,4384,2,NA,6,35,2,1,35,131636,5924,11709,1,100,1,100,1,1,"2018-01-01 00:00:00-05:00","2019-01-01 00:00:00-05:00"
"112P04767","I-35","NORTHBOUND","WELLS BRANCH PKWY/EXIT 248","TX","TRAVIS",78660,30.4404842,-97.6684078,30.4406,-97.668389,0.008078,323,"America/Chicago","P1","USA",113,1,"N",1,4384,2,NA,6,35,2,1,35,131545,5920,11708,1,100,1,100,1,1,"2018-01-01 00:00:00-05:00","2019-01-01 00:00:00-05:00"
"112+04768","I-35","NORTHBOUND","GRAND AVENUE PKWY","TX","TRAVIS",78660,30.4406,-97.668389,30.456014,-97.66632,1.076097,324,"America/Chicago","P1","USA",113,1,"N",1,4384,2,NA,6,35,2,1,35,128213,5892,11533,1,100,1,100,1,1,"2018-01-01 00:00:00-05:00","2019-01-01 00:00:00-05:00"
"112P04768","I-35","NORTHBOUND","GRAND AVENUE PKWY","TX","TRAVIS",78660,30.456014,-97.66632,30.456133,-97.66634,0.008308,325,"America/Chicago","P1","USA",113,1,"N",1,4384,2,NA,6,35,2,1,35,128070,5891,11526,1,100,1,100,1,1,"2018-01-01 00:00:00-05:00","2019-01-01 00:00:00-05:00"
"112+04769","I-35","NORTHBOUND","FM-1325/EXIT 250","TX","TRAVIS",78660,30.456133,-97.66634,30.4805458,-97.6739392,1.746419,326,"America/Chicago","P1","USA",113,1,"N",1,4384,2,NA,6,35,2,1,35,160665,6604,12888,1,100,1,100,1,1,"2018-01-01 00:00:00-05:00","2019-01-01 00:00:00-05:00"
"112-04768","I-35","SOUTHBOUND","GRAND AVENUE PKWY","TX","TRAVIS",78728,30.481348,-97.6744382,30.456115,-97.666514,1.806201,841,"America/Chicago","P1","USA",113,1,"N",1,4384,2,NA,6,35,2,1,35,160167,6591,12866,1,100,1,100,1,1,"2018-01-01 00:00:00-05:00","2019-01-01 00:00:00-05:00"
"112N04768","I-35","SOUTHBOUND","GRAND AVENUE PKWY","TX","TRAVIS",78728,30.456115,-97.666514,30.455993,-97.666491,0.008538,842,"America/Chicago","P1","USA",113,1,"N",1,4384,2,NA,6,35,2,1,35,128070,5891,11526,1,100,1,100,1,1,"2018-01-01 00:00:00-05:00","2019-01-01 00:00:00-05:00"
"112-04767","I-35","SOUTHBOUND","WELLS BRANCH PKWY/EXIT 248","TX","TRAVIS",78660,30.455993,-97.666491,30.4405584,-97.6685302,1.077277,843,"America/Chicago","P1","USA",113,1,"N",1,4384,2,NA,6,35,2,1,35,128228,5892,11534,1,100,1,100,1,1,"2018-01-01 00:00:00-05:00","2019-01-01 00:00:00-05:00"
"112N04767","I-35","SOUTHBOUND","WELLS BRANCH PKWY/EXIT 248","TX","TRAVIS",78660,30.4405584,-97.6685302,30.440441,-97.6685548,0.008246,844,"America/Chicago","P1","USA",113,1,"N",1,4384,2,NA,6,35,2,1,35,131545,5920,11708,1,100,1,100,1,1,"2018-01-01 00:00:00-05:00","2019-01-01 00:00:00-05:00"
"112-04766","I-35","SOUTHBOUND","HOWARD LN/EXIT 246","TX","TRAVIS",78660,30.440441,-97.6685548,30.4244636,-97.6716166,1.118723,845,"America/Chicago","P1","USA",113,1,"N",1,4384,2,NA,6,35,2,1,35,131635,5924,11709,1,100,1,100,1,1,"2018-01-01 00:00:00-05:00","2019-01-01 00:00:00-05:00"
"112N04766","I-35","SOUTHBOUND","HOWARD LN/EXIT 246","TX","TRAVIS",78753,30.4244636,-97.6716166,30.4243476,-97.6716376,0.008109,846,"America/Chicago","P1","USA",113,1,"N",1,4384,2,NA,6,35,2,1,35,133193,5994,11721,1,100,1,100,1,1,"2018-01-01 00:00:00-05:00","2019-01-01 00:00:00-05:00"
"112-04765","I-35","SOUTHBOUND","PARMER LN/EXIT 245","TX","TRAVIS",78753,30.4243476,-97.6716376,30.408038,-97.674731,1.141664,847,"America/Chicago","P1","USA",113,1,"N",1,4384,2,NA,6,35,2,1,35,136395,6057,11861,1,100,1,100,1,1,"2018-01-01 00:00:00-05:00","2019-01-01 00:00:00-05:00"
"112N04765","I-35","SOUTHBOUND","PARMER LN/EXIT 245","TX","TRAVIS",78753,30.408038,-97.674731,30.407913,-97.674755,0.008755,848,"America/Chicago","P1","USA",113,1,"N",1,4384,2,NA,6,35,2,1,35,158122,6483,12808,1,100,1,100,1,1,"2018-01-01 00:00:00-05:00","2019-01-01 00:00:00-05:00"
"112-04764","I-35","SOUTHBOUND","YAGER LN","TX","TRAVIS",78753,30.407913,-97.674755,30.40146,-97.674619,0.451215,849,"America/Chicago","P1","USA",113,1,"N",1,4384,2,NA,6,35,2,1,35,158122,6483,12808,1,100,1,100,1,1,"2018-01-01 00:00:00-05:00","2019-01-01 00:00:00-05:00"
"112N04764","I-35","SOUTHBOUND","YAGER LN","TX","TRAVIS",78753,30.40146,-97.674619,30.39795,-97.672947,0.262293,849.001,"America/Chicago","P1","USA",113,1,"N",1,4384,2,NA,6,35,2,1,35,158122,6483,12808,1,100,1,100,1,1,"2018-01-01 00:00:00-05:00","2019-01-01 00:00:00-05:00"
"112-04763","I-35","SOUTHBOUND","BERRYWOOD DR/MEADOW LARK AVE","TX","TRAVIS",78753,30.39795,-97.672947,30.3838912,-97.6736086,0.993467,850,"America/Chicago","P1","USA",113,1,"N",1,4384,2,NA,6,35,2,1,35,158122,6483,12808,1,100,1,100,1,1,"2018-01-01 00:00:00-05:00","2019-01-01 00:00:00-05:00"
"112-04762","I-35","SOUTHBOUND","BRAKER LN","TX","TRAVIS",78753,30.380944,-97.674329,30.377113,-97.676123,0.286402,851,"America/Chicago","P1","USA",113,1,"N",1,4384,2,NA,6,35,2,1,35,154515,6406,12658,1,100,1,100,1,1,"2018-01-01 00:00:00-05:00","2019-01-01 00:00:00-05:00"
"112N04763","I-35","SOUTHBOUND","BERRYWOOD DR/MEADOW LARK AVE","TX","TRAVIS",78753,30.3838912,-97.6736086,30.380944,-97.674329,0.20811,851.001,"America/Chicago","P1","USA",113,1,"N",1,4384,2,NA,6,35,2,1,35,158122,6483,12808,1,100,1,100,1,1,"2018-01-01 00:00:00-05:00","2019-01-01 00:00:00-05:00"
"112N04762","I-35","SOUTHBOUND","BRAKER LN","TX","TRAVIS",78753,30.377113,-97.676123,30.377024,-97.67618,0.007021,852,"America/Chicago","P1","USA",113,1,"N",1,4384,2,NA,6,35,2,1,35,137266,6040,11942,1,100,1,100,1,1,"2018-01-01 00:00:00-05:00","2019-01-01 00:00:00-05:00"
"112-04761","I-35","SOUTHBOUND","RUNDBERG LN","TX","TRAVIS",78753,30.377024,-97.67618,30.3582742,-97.6880924,1.477129,853,"America/Chicago","P1","USA",113,1,"N",1,4384,2,NA,6,35,2,1,35,137443,6044,11950,1,100,1,100,1,1,"2018-01-01 00:00:00-05:00","2019-01-01 00:00:00-05:00"
"112N04761","I-35","SOUTHBOUND","RUNDBERG LN","TX","TRAVIS",78753,30.3582742,-97.6880924,30.3581894,-97.6881476,0.006717,854,"America/Chicago","P1","USA",113,1,"N",1,4384,2,NA,6,35,2,1,35,144013,6193,12241,1,100,1,100,1,1,"2018-01-01 00:00:00-05:00","2019-01-01 00:00:00-05:00"
"112-04760","I-35","SOUTHBOUND","US-183/EXIT 239-240","TX","TRAVIS",78753,30.3581894,-97.6881476,30.341016,-97.699038,1.352389,855,"America/Chicago","P1","USA",113,1,"N",1,4384,2,NA,6,35,2,1,35,144013,6193,12241,1,100,1,100,1,1,"2018-01-01 00:00:00-05:00","2019-01-01 00:00:00-05:00"
"112N04760","I-35","SOUTHBOUND","US-183/EXIT 239-240","TX","TRAVIS",78752,30.341016,-97.699038,30.3363774,-97.702046,0.36723,856,"America/Chicago","P1","USA",113,1,"N",1,4384,2,NA,8,35,2,1,35,179815,6951,13853,1,100,1,100,1,1,"2018-01-01 00:00:00-05:00","2019-01-01 00:00:00-05:00"
"112-04759","I-35","SOUTHBOUND","US-290/EXIT 238","TX","TRAVIS",78752,30.3363774,-97.702046,30.33011,-97.7055156,0.480954,857,"America/Chicago","P1","USA",113,1,"N",1,4384,2,NA,8,35,2,1,35,198682,7351,14702,1,100,1,100,1,1,"2018-01-01 00:00:00-05:00","2019-01-01 00:00:00-05:00"
"112N04759","I-35","SOUTHBOUND","US-290/EXIT 238","TX","TRAVIS",78752,30.33011,-97.7055156,30.3151766,-97.7079034,1.042213,858,"America/Chicago","P1","USA",113,1,"N",1,4384,2,NA,8,35,2,1,35,195808,7341,14490,1,100,1,100,1,1,"2018-01-01 00:00:00-05:00","2019-01-01 00:00:00-05:00"
"112-04758","I-35","SOUTHBOUND","51ST ST/CAMERON RD/EXIT 237","TX","TRAVIS",78723,30.3151766,-97.7079034,30.309543,-97.710407,0.418419,859,"America/Chicago","P1","USA",113,1,"N",1,4384,2,NA,8,35,2,1,35,193302,7346,14304,1,100,1,100,1,1,"2018-01-01 00:00:00-05:00","2019-01-01 00:00:00-05:00"
"112-04757","I-35","SOUTHBOUND","AIRPORT BLVD/EXIT 236-237","TX","TRAVIS",78751,30.309543,-97.710407,30.3050966,-97.7132882,0.351976,860,"America/Chicago","P1","USA",113,1,"N",1,4384,2,NA,8,35,2,1,35,195625,7434,14476,1,100,1,100,1,1,"2018-01-01 00:00:00-05:00","2019-01-01 00:00:00-05:00"
"112N04757","I-35","SOUTHBOUND","AIRPORT BLVD/EXIT 236-237","TX","TRAVIS",78751,30.3050966,-97.7132882,30.299883,-97.71667,0.412969,861,"America/Chicago","P1","USA",113,1,"N",1,4384,2,NA,8,35,2,1,35,195625,7434,14476,-1,52,1,52,1,0,"2018-01-01 00:00:00-05:00","2019-01-01 00:00:00-05:00"
"112N04900","I-35","SOUTHBOUND","AIRPORT BLVD/EXIT 237","TX","TRAVIS",78751,30.3050966,-97.7132882,30.299883,-97.71667,0.412969,863,"America/Chicago","P1","USA",112,1,"N",1,4384,2,NA,8,35,2,1,35,195625,7434,14476,1,52,1,52,1,1,"2018-01-01 00:00:00-05:00","2019-01-01 00:00:00-05:00"
"112-04899","I-35","SOUTHBOUND","HANCOCK CENTER ACCESS (OVERPASS)","TX","TRAVIS",78751,30.299883,-97.71667,30.298913,-97.717257,0.075602,864,"America/Chicago","P1.3","USA",NA,1,"",NA,NA,NA,NA,NA,NA,NA,NA,NA,NA,NA,NA,NA,NA,NA,NA,NA,NA,"2018-01-01 00:00:00-05:00","2019-01-01 00:00:00-05:00"
"112N04899","I-35","SOUTHBOUND","HANCOCK CENTER ACCESS (OVERPASS)","TX","TRAVIS",78751,30.298913,-97.717257,30.298571,-97.71747,0.026825,865,"America/Chicago","P1.3","USA",NA,1,"",NA,NA,NA,NA,NA,NA,NA,NA,NA,NA,NA,NA,NA,NA,NA,NA,NA,NA,"2018-01-01 00:00:00-05:00","2019-01-01 00:00:00-05:00"
"112-04898","I-35","SOUTHBOUND","E 38 1/2 ST (OVERPASS)","TX","TRAVIS",78751,30.298571,-97.71747,30.294881,-97.719688,0.287223,866,"America/Chicago","P1.3","USA",NA,1,"",NA,NA,NA,NA,NA,NA,NA,NA,NA,NA,NA,NA,NA,NA,NA,NA,NA,NA,"2018-01-01 00:00:00-05:00","2019-01-01 00:00:00-05:00"
"112-04897","I-35","SOUTHBOUND","26TH ST (OVERPASS)","TX","TRAVIS",78722,30.294881,-97.719688,30.286666,-97.724956,0.648693,867,"America/Chicago","P1.3","USA",NA,1,"",NA,NA,NA,NA,NA,NA,NA,NA,NA,NA,NA,NA,NA,NA,NA,NA,NA,NA,"2018-01-01 00:00:00-05:00","2019-01-01 00:00:00-05:00"
"112N04897","I-35","SOUTHBOUND","26TH ST (OVERPASS)","TX","TRAVIS",78705,30.286666,-97.724956,30.286545,-97.72503,0.009451,868,"America/Chicago","P1.3","USA",NA,1,"",NA,NA,NA,NA,NA,NA,NA,NA,NA,NA,NA,NA,NA,NA,NA,NA,NA,NA,"2018-01-01 00:00:00-05:00","2019-01-01 00:00:00-05:00"
"112-04896","I-35","SOUTHBOUND","MANOR RD (OVERPASS)","TX","TRAVIS",78705,30.286545,-97.72503,30.283055,-97.727329,0.27738,869,"America/Chicago","P1.3","USA",NA,1,"",NA,NA,NA,NA,NA,NA,NA,NA,NA,NA,NA,NA,NA,NA,NA,NA,NA,NA,"2018-01-01 00:00:00-05:00","2019-01-01 00:00:00-05:00"
"112-04895","I-35","SOUTHBOUND","MARTIN LUTHER KING BLVD/19TH ST/EXIT 235A","TX","TRAVIS",78705,30.283973,-97.726723,30.283144,-97.727274,0.066033,879,"America/Chicago","P1.3","USA",NA,1,"",NA,NA,NA,NA,NA,NA,NA,NA,NA,NA,NA,NA,NA,NA,NA,NA,NA,NA,"2018-01-01 00:00:00-05:00","2019-01-01 00:00:00-05:00"
"112N04895","I-35","SOUTHBOUND","MARTIN LUTHER KING BLVD/19TH ST/EXIT 235A","TX","TRAVIS",78702,30.283144,-97.727274,30.2713366,-97.732645,0.881663,880,"America/Chicago","P1","USA",112,1,"N",1,4384,2,NA,8,35,2,1,35,176712,6892,13607,1,54,1,54,1,1,"2018-01-01 00:00:00-05:00","2019-01-01 00:00:00-05:00"
"112-05046","I-35","SOUTHBOUND","12TH ST/15TH ST/EXIT 234-235","TX","TRAVIS",78702,30.278197,-97.730111,30.277843,-97.73028,0.026452,881,"America/Chicago","P1","USA",95,1,"N",1,4384,2,NA,8,35,2,1,35,176712,6892,13607,-1,100,1,100,1,0,"2018-01-01 00:00:00-05:00","2019-01-01 00:00:00-05:00"
"112N05047","I-35","SOUTHBOUND","MARTIN LUTHER KING BLVD/19TH ST/EXIT 235","TX","TRAVIS",78705,30.282936,-97.727286,30.277843,-97.73028,0.395322,881.001,"America/Chicago","P1","USA",95,1,"N",1,4384,2,1,8,35,2,1,35,196297,7340,14483,-1,100,1,100,1,0,"2018-01-01 00:00:00-05:00","2019-01-01 00:00:00-05:00"
"112N05046","I-35","SOUTHBOUND","12TH ST/15TH ST/EXIT 234-235","TX","TRAVIS",78701,30.277843,-97.73028,30.2713366,-97.732645,0.471863,882,"America/Chicago","P1","USA",95,1,"N",1,4384,2,NA,8,35,2,1,35,176712,6892,13607,1,100,1,100,1,1,"2018-01-01 00:00:00-05:00","2019-01-01 00:00:00-05:00"
"112-05045","I-35","SOUTHBOUND","8TH ST/EXIT 234","TX","TRAVIS",78701,30.2713366,-97.732645,30.2707402,-97.732869,0.043316,883,"America/Chicago","P1","USA",95,1,"N",1,4384,2,NA,6,35,2,1,35,176712,6892,13607,1,100,1,100,1,1,"2018-01-01 00:00:00-05:00","2019-01-01 00:00:00-05:00"
"112N05045","I-35","SOUTHBOUND","8TH ST/EXIT 234","TX","TRAVIS",78701,30.2707402,-97.732869,30.2676242,-97.7339982,0.225564,884,"America/Chicago","P1","USA",95,1,"N",1,4384,2,NA,6,35,2,1,35,176712,6892,13607,1,100,1,100,1,1,"2018-01-01 00:00:00-05:00","2019-01-01 00:00:00-05:00"
"112-05044","I-35","SOUTHBOUND","7TH ST/EXIT 234","TX","TRAVIS",78701,30.2676242,-97.7339982,30.2674552,-97.7340638,0.012316,885,"America/Chicago","P1","USA",95,1,"N",1,4384,2,NA,6,35,2,1,35,176712,6892,13607,1,100,1,100,1,1,"2018-01-01 00:00:00-05:00","2019-01-01 00:00:00-05:00"
"112N05044","I-35","SOUTHBOUND","7TH ST/EXIT 234","TX","TRAVIS",78701,30.2674552,-97.7340638,30.263601,-97.735501,0.279741,886,"America/Chicago","P1","USA",95,1,"N",1,4384,2,NA,6,35,2,1,35,157847,6472,12786,1,100,1,100,1,1,"2018-01-01 00:00:00-05:00","2019-01-01 00:00:00-05:00"
"112-05043","I-35","SOUTHBOUND","CESAR CHAVEZ ST/1ST ST/EXIT 234","TX","TRAVIS",78701,30.263601,-97.735501,30.2631192,-97.7356908,0.035157,887,"America/Chicago","P1","USA",95,1,"N",1,4384,2,1,6,35,2,1,35,157847,6472,12786,1,100,1,100,1,1,"2018-01-01 00:00:00-05:00","2019-01-01 00:00:00-05:00"
"112N05043","I-35","SOUTHBOUND","CESAR CHAVEZ ST/1ST ST/EXIT 234","TX","TRAVIS",78701,30.2631192,-97.7356908,30.257462,-97.737257,0.40573,888,"America/Chicago","P1","USA",95,1,"N",1,4384,2,NA,6,35,2,1,35,147010,6239,12331,1,100,1,100,1,1,"2018-01-01 00:00:00-05:00","2019-01-01 00:00:00-05:00"
"112-05042","I-35","SOUTHBOUND","RIVERSIDE DR/EXIT 233","TX","TRAVIS",78701,30.257462,-97.737257,30.257277,-97.737243,0.012813,889,"America/Chicago","P1","USA",95,1,"N",1,4384,2,NA,6,35,2,1,35,143178,6157,12170,1,100,1,100,1,1,"2018-01-01 00:00:00-05:00","2019-01-01 00:00:00-05:00"
"112N05042","I-35","SOUTHBOUND","RIVERSIDE DR/EXIT 233","TX","TRAVIS",78701,30.257277,-97.737243,30.246768,-97.735149,0.736865,890,"America/Chicago","P1","USA",95,1,"N",1,4384,2,NA,6,35,2,1,35,144600,6195,12223,1,100,1,100,1,1,"2018-01-01 00:00:00-05:00","2019-01-01 00:00:00-05:00"
"112-05041","I-35","SOUTHBOUND","WOODLAND AVE","TX","TRAVIS",78741,30.246768,-97.735149,30.240914,-97.736995,0.430281,891,"America/Chicago","P1","USA",95,1,"N",1,4384,2,NA,6,35,2,1,35,152792,6417,12529,1,100,1,100,1,1,"2018-01-01 00:00:00-05:00","2019-01-01 00:00:00-05:00"
"112-05040","I-35","SOUTHBOUND","OLTORF ST/EXIT 232","TX","TRAVIS",78704,30.240914,-97.736995,30.2384156,-97.7384836,0.194116,892,"America/Chicago","P1","USA",95,1,"N",1,4384,2,NA,6,35,2,1,35,152792,6417,12529,1,100,1,100,1,1,"2018-01-01 00:00:00-05:00","2019-01-01 00:00:00-05:00"
"112N05040","I-35","SOUTHBOUND","OLTORF ST/EXIT 232","TX","TRAVIS",78704,30.2384156,-97.7384836,30.226502,-97.745548,0.924755,893,"America/Chicago","P1","USA",95,1,"N",1,4384,2,NA,6,35,2,1,35,158763,6564,12810,1,100,1,100,1,1,"2018-01-01 00:00:00-05:00","2019-01-01 00:00:00-05:00"
"112-05039","I-35","SOUTHBOUND","WOODWARD ST","TX","TRAVIS",78704,30.226502,-97.745548,30.2233508,-97.7474524,0.245603,894,"America/Chicago","P1","USA",95,1,"N",1,4384,2,NA,6,35,2,1,35,162071,6645,12966,1,100,1,100,1,1,"2018-01-01 00:00:00-05:00","2019-01-01 00:00:00-05:00"
"112-05038","I-35","SOUTHBOUND","TX-71/BEN WHITE BLVD/EXIT 230","TX","TRAVIS",78704,30.2233508,-97.7474524,30.216912,-97.751203,0.498103,895,"America/Chicago","P1","USA",95,1,"N",1,4384,2,NA,6,35,2,1,35,162071,6645,12966,1,100,1,100,1,1,"2018-01-01 00:00:00-05:00","2019-01-01 00:00:00-05:00"
"112N05038","I-35","SOUTHBOUND","TX-71/BEN WHITE BLVD/EXIT 230","TX","TRAVIS",78704,30.216912,-97.751203,30.215622,-97.751984,0.1006,896,"America/Chicago","P1","USA",95,1,"N",1,4384,2,NA,6,35,2,1,35,155909,5331,12473,1,100,1,100,1,1,"2018-01-01 00:00:00-05:00","2019-01-01 00:00:00-05:00"
"112-05037","I-35","SOUTHBOUND","SHELBY LN/ST ELMO RD/EXIT 230","TX","TRAVIS",78745,30.215622,-97.751984,30.214884,-97.752426,0.057402,897,"America/Chicago","P1","USA",95,1,"N",1,4384,2,NA,6,35,2,1,35,153175,4748,12254,1,100,1,100,1,1,"2018-01-01 00:00:00-05:00","2019-01-01 00:00:00-05:00"
"112N05037","I-35","SOUTHBOUND","SHELBY LN/ST ELMO RD/EXIT 230","TX","TRAVIS",78745,30.214884,-97.752426,30.1990738,-97.763756,1.287133,898,"America/Chicago","P1","USA",95,1,"N",1,4384,2,NA,6,35,2,1,35,159809,4852,12531,1,100,1,100,1,1,"2018-01-01 00:00:00-05:00","2019-01-01 00:00:00-05:00"
"112-05036","I-35","SOUTHBOUND","STASSNEY LN","TX","TRAVIS",78744,30.1990738,-97.763756,30.198587,-97.7641718,0.041824,899,"America/Chicago","P1","USA",95,1,"N",1,4384,2,1,6,35,2,1,35,176228,5111,13217,1,100,1,100,1,1,"2018-01-01 00:00:00-05:00","2019-01-01 00:00:00-05:00"
"112N05036","I-35","SOUTHBOUND","STASSNEY LN","TX","TRAVIS",78744,30.198587,-97.7641718,30.1985004,-97.7642464,0.007456,900,"America/Chicago","P1","USA",95,1,"N",1,4384,2,NA,6,35,2,1,35,176228,5111,13217,1,100,1,100,1,1,"2018-01-01 00:00:00-05:00","2019-01-01 00:00:00-05:00"
"112-05035","I-35","SOUTHBOUND","WILLIAM CANNON DR/EXIT 228","TX","TRAVIS",78745,30.1985004,-97.7642464,30.1956054,-97.7665738,0.243534,901,"America/Chicago","P1","USA",95,1,"N",1,4384,2,NA,6,35,2,1,35,176228,5111,13217,1,100,1,100,1,1,"2018-01-01 00:00:00-05:00","2019-01-01 00:00:00-05:00"
"112N05035","I-35","SOUTHBOUND","WILLIAM CANNON DR/EXIT 228","TX","TRAVIS",78745,30.1956054,-97.7665738,30.186619,-97.77336,0.741575,902,"America/Chicago","P1","USA",95,1,"N",1,4384,2,NA,6,35,2,1,35,166077,4948,12784,1,100,1,100,1,1,"2018-01-01 00:00:00-05:00","2019-01-01 00:00:00-05:00"
"112-05034","I-35","SOUTHBOUND","SLAUGHTER LN/EXIT 226","TX","TRAVIS",78745,30.186619,-97.77336,30.172921,-97.782368,1.088487,903,"America/Chicago","P1","USA",95,1,"N",1,4384,2,NA,6,35,2,1,35,152607,4731,12209,1,100,1,100,1,1,"2018-01-01 00:00:00-05:00","2019-01-01 00:00:00-05:00"
"112N05034","I-35","SOUTHBOUND","SLAUGHTER LN/EXIT 226","TX","TRAVIS",78744,30.172921,-97.782368,30.1668446,-97.7863696,0.48306,904,"America/Chicago","P1","USA",95,1,"N",1,4384,2,NA,6,35,2,1,35,150197,4678,12354,1,100,1,100,1,1,"2018-01-01 00:00:00-05:00","2019-01-01 00:00:00-05:00"
"112-05033","I-35","SOUTHBOUND","BRANDT RD","TX","TRAVIS",78748,30.1668446,-97.7863696,30.164224,-97.787865,0.201902,905,"America/Chicago","P1","USA",95,1,"N",1,4384,2,NA,6,35,2,1,35,124973,4124,13872,1,100,1,100,1,1,"2018-01-01 00:00:00-05:00","2019-01-01 00:00:00-05:00"
"112N05033","I-35","SOUTHBOUND","BRANDT RD","TX","TRAVIS",78748,30.164224,-97.787865,30.155185,-97.79107,0.654167,906,"America/Chicago","P1","USA",95,1,"N",1,4384,2,NA,6,35,2,1,35,124973,4124,13872,1,100,1,100,1,1,"2018-01-01 00:00:00-05:00","2019-01-01 00:00:00-05:00"
"112-05032","I-35","SOUTHBOUND","E FM-1626/CROWN COLONY DR","TX","TRAVIS",78747,30.155185,-97.79107,30.148867,-97.793004,0.451569,907,"America/Chicago","P1","USA",95,1,"N",1,4384,2,NA,6,35,2,1,35,124973,4124,13872,1,100,1,100,1,1,"2018-01-01 00:00:00-05:00","2019-01-01 00:00:00-05:00"
"112N05032","I-35","SOUTHBOUND","E FM-1626/CROWN COLONY DR","TX","TRAVIS",78747,30.148867,-97.793004,30.137737,-97.797078,0.806521,908,"America/Chicago","P1","USA",95,1,"N",1,4384,2,NA,6,35,2,1,35,124973,4124,13872,1,100,1,100,1,1,"2018-01-01 00:00:00-05:00","2019-01-01 00:00:00-05:00"
"112-05031","I-35","SOUTHBOUND","ONION CREEK PKWY/EXIT 225","TX","TRAVIS",78747,30.137737,-97.797078,30.1369934,-97.7973884,0.054643,909,"America/Chicago","P1","USA",95,1,"N",1,4384,2,NA,6,35,2,1,35,131763,4348,11332,1,100,1,100,1,1,"2018-01-01 00:00:00-05:00","2019-01-01 00:00:00-05:00"
"112N05031","I-35","SOUTHBOUND","ONION CREEK PKWY/EXIT 225","TX","TRAVIS",78747,30.1369934,-97.7973884,30.12883,-97.800566,0.595068,910,"America/Chicago","P1","USA",95,1,"N",1,4384,2,NA,6,35,2,1,35,131763,4348,11332,1,100,1,100,1,1,"2018-01-01 00:00:00-05:00","2019-01-01 00:00:00-05:00"
"112-05030","I-35","SOUTHBOUND","TX-45 TOLL/EXIT 223","TX","TRAVIS",78747,30.12883,-97.800566,30.1190422,-97.8045064,0.716024,911,"America/Chicago","P1","USA",95,1,"N",1,4384,2,NA,6,35,2,1,35,131763,4348,11332,1,100,1,100,1,1,"2018-01-01 00:00:00-05:00","2019-01-01 00:00:00-05:00"
"112N05030","I-35","SOUTHBOUND","TX-45 TOLL/EXIT 223","TX","TRAVIS",78747,30.1190422,-97.8045064,30.0984754,-97.813693,1.523987,912,"America/Chicago","P1","USA",95,1,"N",1,4384,2,NA,6,35,2,1,35,130552,4402,11322,1,100,1,100,1,1,"2018-01-01 00:00:00-05:00","2019-01-01 00:00:00-05:00"
"112-05029","I-35","SOUTHBOUND","TX-4 LOOP/221 DR/EXIT 221","TX","HAYS",78610,30.0984754,-97.813693,30.088902,-97.818959,0.733187,913,"America/Chicago","P1","USA",95,1,"N",1,4384,2,NA,6,35,2,1,35,130093,4423,11318,1,100,1,100,1,1,"2018-01-01 00:00:00-05:00","2019-01-01 00:00:00-05:00"
"112+05030","I-35","NORTHBOUND","TX-45-TOLL/FM-1327/EXIT 223","TX","TRAVIS",78610,30.09891,-97.81315,30.1106,-97.80773,0.870142,256,"America/Chicago","P1.3","USA",95,1,"N",1,4384,2,NA,6,35,2,1,35,131526,3420,12495,1,87,1,87,1,1,"2019-01-01 00:00:00-05:00",""
"112P05030","I-35","NORTHBOUND","TX-45-TOLL/FM-1327/EXIT 223","TX","TRAVIS",78610,30.1106,-97.80773,30.11459,-97.806,0.294399,257,"America/Chicago","P1.3","USA",95,1,"N",1,4384,2,NA,6,35,2,1,35,132120,3435,12506,1,100,1,100,1,1,"2019-01-01 00:00:00-05:00",""
"112+05031","I-35","NORTHBOUND","ONION CREEK PKY/EXIT 225","TX","TRAVIS",78610,30.11459,-97.806,30.12615,-97.80135,0.845542,258,"America/Chicago","P1.3","USA",95,1,"N",1,4384,2,NA,6,35,2,1,35,133258,3465,12526,1,84,1,84,1,1,"2019-01-01 00:00:00-05:00",""
"112P05031","I-35","NORTHBOUND","ONION CREEK PKY/EXIT 225","TX","TRAVIS",78747,30.12615,-97.80135,30.13775,-97.79684,0.845453,259,"America/Chicago","P1.3","USA",95,1,"N",1,4384,2,NA,6,35,2,1,35,132762,3452,12507,1,84,1,84,1,1,"2019-01-01 00:00:00-05:00",""
"112+05032","I-35","NORTHBOUND","FM-1626/CROWN COLONY DR","TX","TRAVIS",78747,30.13775,-97.79684,30.13804,-97.79673,0.021084,260,"America/Chicago","P1.3","USA",95,1,"N",1,4384,2,NA,6,35,2,1,35,126468,3288,12267,1,100,1,100,1,1,"2019-01-01 00:00:00-05:00",""
"112P05032","I-35","NORTHBOUND","FM-1626/CROWN COLONY DR","TX","TRAVIS",78747,30.13804,-97.79673,30.14628,-97.79368,0.597708,261,"America/Chicago","P1.3","USA",95,1,"N",1,4384,2,NA,6,35,2,1,35,126468,3288,12267,1,60,1,60,1,1,"2019-01-01 00:00:00-05:00",""
"112+05033","I-35","NORTHBOUND","BRANDT RD/TURK LN","TX","TRAVIS",78747,30.14628,-97.79368,30.15411,-97.79115,0.56179,262,"America/Chicago","P1.3","USA",95,1,"N",1,4384,2,NA,6,35,2,1,35,126468,3288,12267,1,56,1,56,1,1,"2019-01-01 00:00:00-05:00",""
"112P05033","I-35","NORTHBOUND","BRANDT RD/TURK LN","TX","TRAVIS",78744,30.15411,-97.79115,30.16319,-97.78811,0.653642,263,"America/Chicago","P1.3","USA",95,1,"N",1,4384,2,NA,6,35,2,1,35,126468,3288,12267,1,65,1,65,1,1,"2019-01-01 00:00:00-05:00",""
"112+05034","I-35","NORTHBOUND","SLAUGHTER LN/EXIT 226","TX","TRAVIS",78744,30.16319,-97.78811,30.16858,-97.78491,0.418947,264,"America/Chicago","P1.3","USA",95,1,"N",1,4384,2,NA,6,35,2,1,35,134402,3402,12619,1,100,1,100,1,1,"2019-01-01 00:00:00-05:00",""
"112P05034","I-35","NORTHBOUND","SLAUGHTER LN/EXIT 226","TX","TRAVIS",78744,30.16858,-97.78491,30.17485,-97.78076,0.499044,265,"America/Chicago","P1.3","USA",95,1,"N",1,4384,2,NA,6,35,2,1,35,152563,3662,13426,1,100,1,100,1,1,"2019-01-01 00:00:00-05:00",""
"112+05035","I-35","NORTHBOUND","WILLIAM CANNON DR/EXIT 228/EXIT 229","TX","TRAVIS",78744,30.17485,-97.78076,30.18181,-97.77623,0.551678,266,"America/Chicago","P1.3","USA",95,1,"N",1,4384,2,NA,6,35,2,1,35,152563,3662,13426,1,55,1,55,1,1,"2019-01-01 00:00:00-05:00",""
"112P05035","I-35","NORTHBOUND","WILLIAM CANNON DR/EXIT 228/EXIT 229","TX","TRAVIS",78744,30.18181,-97.77623,30.19416,-97.76742,1.003153,267,"America/Chicago","P1.3","USA",95,1,"N",1,4384,2,NA,6,35,2,1,35,159944,3784,13800,1,100,1,100,1,1,"2019-01-01 00:00:00-05:00",""
"112+05036","I-35","NORTHBOUND","STASSNEY LN","TX","TRAVIS",78744,30.19416,-97.76742,30.20111,-97.76173,0.58824,268,"America/Chicago","P1.3","USA",95,1,"N",1,4384,2,NA,6,35,2,1,35,167127,3904,14172,1,59,1,59,1,1,"2019-01-01 00:00:00-05:00",""
"112P05036","I-35","NORTHBOUND","STASSNEY LN","TX","TRAVIS",78744,30.20111,-97.76173,30.20435,-97.7591,0.273404,269,"America/Chicago","P1.3","USA",95,1,"N",1,4384,2,NA,6,35,2,1,35,153131,3675,13476,1,100,1,100,1,1,"2019-01-01 00:00:00-05:00",""
"112+05037","I-35","NORTHBOUND","SHELBY LN/ST ELMO RD/EXIT 230","TX","TRAVIS",78744,30.20435,-97.7591,30.20687,-97.75712,0.210448,270,"America/Chicago","P1.3","USA",95,1,"N",1,4384,2,NA,6,35,2,1,35,153131,3675,13476,1,100,1,100,1,1,"2019-01-01 00:00:00-05:00",""
"112P05037","I-35","NORTHBOUND","SHELBY LN/ST ELMO RD/EXIT 230","TX","TRAVIS",78744,30.20687,-97.75712,30.21461,-97.75224,0.60897,273,"America/Chicago","P1.3","USA",95,1,"N",1,4384,2,NA,6,35,2,1,35,153131,3675,13476,1,61,1,61,1,1,"2019-01-01 00:00:00-05:00",""
"112+05038","I-35","NORTHBOUND","TX-71/BEN WHITE BLVD/EXIT 230","TX","TRAVIS",78744,30.21461,-97.75224,30.21691,-97.75087,0.178725,274,"America/Chicago","P1.3","USA",95,1,"N",1,4384,2,NA,6,35,2,1,35,155277,3922,13118,1,100,1,100,1,1,"2019-01-01 00:00:00-05:00",""
"112P05038","I-35","NORTHBOUND","TX-71/BEN WHITE BLVD/EXIT 230","TX","TRAVIS",78741,30.21691,-97.75087,30.22306,-97.74734,0.474245,275,"America/Chicago","P1.3","USA",95,1,"N",1,4384,2,NA,6,35,2,1,35,162027,4699,11990,1,100,1,100,1,1,"2019-01-01 00:00:00-05:00",""
"112+05039","I-35","NORTHBOUND","WOODWARD ST","TX","TRAVIS",78741,30.22306,-97.74734,30.22587,-97.74578,0.215311,276,"America/Chicago","P1.3","USA",95,1,"N",1,4384,2,NA,6,35,2,1,35,162027,4699,11990,1,100,1,100,1,1,"2019-01-01 00:00:00-05:00",""
"112P05039","I-35","NORTHBOUND","WOODWARD ST","TX","TRAVIS",78741,30.22587,-97.74578,30.23225,-97.74189,0.498194,276.5,"America/Chicago","P1.3","USA",95,1,"N",1,4384,2,NA,6,35,2,1,35,162027,4699,11990,1,100,1,100,1,1,"2019-01-01 00:00:00-05:00",""
"112+05040","I-35","NORTHBOUND","OLTORF ST/EXIT 232","TX","TRAVIS",78741,30.23225,-97.74189,30.23429,-97.74076,0.156243,277,"America/Chicago","P1.3","USA",95,1,"N",1,4384,2,NA,6,35,2,1,35,159327,4663,11875,1,100,1,100,1,1,"2019-01-01 00:00:00-05:00",""
"112P05040","I-35","NORTHBOUND","OLTORF ST/EXIT 232","TX","TRAVIS",78741,30.23429,-97.74076,30.2391,-97.73789,0.37383,278,"America/Chicago","P1.3","USA",95,1,"N",1,4384,2,NA,6,35,2,1,35,152367,4571,11580,1,100,1,100,1,1,"2019-01-01 00:00:00-05:00",""
"112+05041","I-35","NORTHBOUND","WOODLAND AVE","TX","TRAVIS",78741,30.2391,-97.73789,30.24341,-97.73534,0.334381,279,"America/Chicago","P1.3","USA",95,1,"N",1,4384,2,NA,6,35,2,1,35,152367,4571,11580,1,100,1,100,1,1,"2019-01-01 00:00:00-05:00",""
"112P05041","I-35","NORTHBOUND","WOODLAND AVE","TX","TRAVIS",78741,30.24341,-97.73534,30.24732,-97.73512,0.275812,279.5,"America/Chicago","P1.3","USA",95,1,"N",1,4384,2,NA,6,35,2,1,35,152367,4571,11580,1,100,1,100,1,1,"2019-01-01 00:00:00-05:00",""
"112+05042","I-35","NORTHBOUND","RIVERSIDE DR/EXIT 233","TX","TRAVIS",78741,30.24732,-97.73512,30.24838,-97.73537,0.074749,280,"America/Chicago","P1.3","USA",95,1,"N",1,4384,2,NA,6,35,2,1,35,148489,4743,11227,1,100,1,100,1,1,"2019-01-01 00:00:00-05:00",""
"112P05042","I-35","NORTHBOUND","RIVERSIDE DR/EXIT 233","TX","TRAVIS",78701,30.24838,-97.73537,30.25456,-97.73668,0.43403,281,"America/Chicago","P1.3","USA",95,1,"N",1,4384,2,NA,6,35,2,1,35,142766,4997,10707,1,100,1,100,1,1,"2019-01-01 00:00:00-05:00",""
"112+05043","I-35","NORTHBOUND","TX-343-LOOP/1ST ST/EXIT 234","TX","TRAVIS",78701,30.25456,-97.73668,30.25801,-97.73706,0.239994,282,"America/Chicago","P1.3","USA",95,1,"N",1,4384,2,NA,8,35,2,1,35,142766,4997,10707,1,100,1,100,1,1,"2019-01-01 00:00:00-05:00",""
"112P05043","I-35","NORTHBOUND","TX-343-LOOP/1ST ST/EXIT 234","TX","TRAVIS",78701,30.25801,-97.73706,30.26375,-97.73531,0.410894,283,"America/Chicago","P1.3","USA",95,1,"N",1,4384,2,NA,8,35,2,1,35,149670,5094,10936,1,100,1,100,1,1,"2019-01-01 00:00:00-05:00",""
"112+05044","I-35","NORTHBOUND","7TH ST/EXIT 234","TX","TRAVIS",78701,30.26375,-97.73531,30.2643,-97.7351,0.040008,284,"America/Chicago","P1.3","USA",95,1,"N",1,4384,2,NA,8,35,2,1,35,157878,5210,11209,1,100,1,100,1,1,"2019-01-01 00:00:00-05:00",""
"112P05044","I-35","NORTHBOUND","7TH ST/EXIT 234","TX","TRAVIS",78701,30.2643,-97.7351,30.2667,-97.73422,0.173909,285,"America/Chicago","P1.3","USA",95,1,"N",1,4384,2,1,8,35,2,1,35,157878,5210,11209,1,100,1,100,1,1,"2019-01-01 00:00:00-05:00",""
"112+05045","I-35","NORTHBOUND","8TH ST/EXIT 234","TX","TRAVIS",78701,30.2667,-97.73422,30.26759,-97.73388,0.064741,286,"America/Chicago","P1.3","USA",95,1,"N",1,4384,2,1,8,35,2,1,35,176283,5477,12005,1,100,1,100,1,1,"2019-01-01 00:00:00-05:00",""
"112P05045","I-35","NORTHBOUND","8TH ST/EXIT 234","TX","TRAVIS",78701,30.26759,-97.73388,30.27032,-97.73288,0.197801,287,"America/Chicago","P1.3","USA",95,1,"N",1,4384,2,NA,8,35,2,1,35,176987,5487,12035,1,100,1,100,1,1,"2019-01-01 00:00:00-05:00",""
"112+05046","I-35","NORTHBOUND","12TH ST/15TH ST/EXIT 234/EXIT 235","TX","TRAVIS",78701,30.27032,-97.73288,30.27184,-97.73229,0.110749,288,"America/Chicago","P1.3","USA",95,1,"N",1,4384,2,NA,8,35,2,1,35,176987,5487,12035,1,100,1,100,1,1,"2019-01-01 00:00:00-05:00",""
"112P05046","I-35","NORTHBOUND","12TH ST/15TH ST/EXIT 234/EXIT 235","TX","TRAVIS",78701,30.27184,-97.73229,30.27576,-97.73103,0.281103,289,"America/Chicago","P1.3","USA",95,1,"N",1,4384,2,NA,8,35,2,1,35,176987,5487,12035,1,100,1,100,1,1,"2019-01-01 00:00:00-05:00",""
"112+05047","I-35","NORTHBOUND","M L K JR BLVD/EXIT 235","TX","TRAVIS",78701,30.27576,-97.73103,30.27848,-97.72983,0.201138,290,"America/Chicago","P1.3","USA",95,1,"N",1,4384,2,NA,8,35,2,1,35,176987,5487,12035,1,100,1,100,1,1,"2019-01-01 00:00:00-05:00",""
"112P05047","I-35","NORTHBOUND","M L K JR BLVD/EXIT 235","TX","TRAVIS",78722,30.27848,-97.72983,30.27866,-97.72974,0.013556,290.001,"America/Chicago","P1.3","USA",95,1,"N",1,4384,2,NA,8,35,2,1,35,201974,6059,12926,1,100,1,100,1,1,"2019-01-01 00:00:00-05:00",""
"112P04895","I-35","NORTHBOUND","M L K JR BLVD/EXIT 235","TX","TRAVIS",78722,30.27866,-97.72974,30.28191,-97.72775,0.254037,297,"America/Chicago","P1.3","USA",112,1,"N",1,4384,2,NA,8,35,2,1,35,201974,6059,12926,1,100,1,100,1,1,"2019-01-01 00:00:00-05:00",""
"112+04896","I-35","NORTHBOUND","MANOR RD/EXIT 235","TX","TRAVIS",78722,30.28191,-97.72775,30.28208,-97.72765,0.013172,298,"America/Chicago","P1.3","USA",112,1,"N",1,4384,2,1,8,35,2,1,35,201974,6059,12926,1,100,1,100,1,1,"2019-01-01 00:00:00-05:00",""
"112P04896","I-35","NORTHBOUND","MANOR RD/EXIT 235","TX","TRAVIS",78722,30.28208,-97.72765,30.28471,-97.72595,0.208099,298.5,"America/Chicago","P1.3","USA",112,1,"N",1,4384,2,1,8,35,2,1,35,201974,6059,12926,1,100,1,100,1,1,"2019-01-01 00:00:00-05:00",""
"112+04897","I-35","NORTHBOUND","26TH ST/NB EXIT 236/SB EXIT 235","TX","TRAVIS",78722,30.28471,-97.72595,30.28547,-97.72542,0.061285,299,"America/Chicago","P1.3","USA",112,1,"N",1,4384,2,1,8,35,2,1,35,201974,6059,12926,1,100,1,100,1,1,"2019-01-01 00:00:00-05:00",""
"112P04897","I-35","NORTHBOUND","26TH ST/NB EXIT 236/SB EXIT 235","TX","TRAVIS",78722,30.28547,-97.72542,30.28776,-97.72399,0.179736,300,"America/Chicago","P1.3","USA",112,1,"N",1,4384,2,1,8,35,2,1,35,201974,6059,12926,1,100,1,100,1,1,"2019-01-01 00:00:00-05:00",""
"112+04898","I-35","NORTHBOUND","38 1/2 ST/EXIT 236","TX","TRAVIS",78722,30.28776,-97.72399,30.29079,-97.72206,0.238901,301,"America/Chicago","P1.3","USA",112,1,"N",1,4384,2,1,8,35,2,1,35,201974,6059,12926,1,100,1,100,1,1,"2019-01-01 00:00:00-05:00",""
"112P04898","I-35","NORTHBOUND","38 1/2 ST/EXIT 236","TX","TRAVIS",78722,30.29079,-97.72206,30.29478,-97.71946,0.316264,301.5,"America/Chicago","P1.3","USA",112,1,"N",1,4384,2,1,8,35,2,1,35,201974,6059,12926,1,100,1,100,1,1,"2019-01-01 00:00:00-05:00",""
"112+04899","I-35","NORTHBOUND","HANCOCK CTR/EXIT 237","TX","TRAVIS",78722,30.29478,-97.71946,30.29651,-97.71836,0.136337,302,"America/Chicago","P1.3","USA",112,1,"N",1,4384,2,1,8,35,2,1,35,201974,6059,12926,1,100,1,100,1,1,"2019-01-01 00:00:00-05:00",""
"112P04899","I-35","NORTHBOUND","HANCOCK CTR/EXIT 237","TX","TRAVIS",78722,30.29651,-97.71836,30.29869,-97.71698,0.171663,303,"America/Chicago","P1.3","USA",112,1,"N",1,4384,2,1,8,35,2,1,35,201974,6059,12926,1,100,1,100,1,1,"2019-01-01 00:00:00-05:00",""
"112+04900","I-35","NORTHBOUND","TX-111-LOOP/AIRPORT/EXIT 237","TX","TRAVIS",78722,30.29869,-97.71698,30.2997,-97.71637,0.078706,304,"America/Chicago","P1.3","USA",112,1,"N",1,4384,2,1,8,35,2,1,35,201974,6059,12926,1,100,1,100,1,1,"2019-01-01 00:00:00-05:00",""
"112P04900","I-35","NORTHBOUND","TX-111-LOOP/AIRPORT/EXIT 237","TX","TRAVIS",78722,30.2997,-97.71637,30.30152,-97.71531,0.140754,305,"America/Chicago","P1.3","USA",112,1,"N",1,4384,2,1,8,35,2,1,35,201974,6059,12926,1,100,1,100,1,1,"2019-01-01 00:00:00-05:00",""
"112P04757","I-35","NORTHBOUND","AIRPORT BLVD/EXIT 236/EXIT 237","TX","TRAVIS",78723,30.30152,-97.71531,30.3033,-97.71418,0.140234,306,"America/Chicago","P1.3","USA",113,1,"N",1,4384,2,NA,8,35,2,1,35,196924,5908,12766,1,100,1,100,1,1,"2019-01-01 00:00:00-05:00",""
"112+04758","I-35","NORTHBOUND","51ST ST/CAMERON RD/EXIT 237","TX","TRAVIS",78723,30.3033,-97.71418,30.3053,-97.71289,0.158138,307,"America/Chicago","P1.3","USA",113,1,"N",1,4384,2,NA,8,35,2,1,35,195900,5877,12734,1,100,1,100,1,1,"2019-01-01 00:00:00-05:00",""
"112P04758","I-35","NORTHBOUND","51ST ST/CAMERON RD/EXIT 237","TX","TRAVIS",78723,30.3053,-97.71289,30.31029,-97.70971,0.39353,307.5,"America/Chicago","P1.3","USA",113,1,"N",1,4384,2,NA,8,35,2,1,35,195501,5865,12708,1,100,1,100,1,1,"2019-01-01 00:00:00-05:00",""
"112+04759","I-35","NORTHBOUND","US-290/EXIT 238","TX","TRAVIS",78723,30.31029,-97.70971,30.31125,-97.70919,0.07321,308,"America/Chicago","P1.3","USA",113,1,"N",1,4384,2,NA,8,35,2,1,35,193522,5806,12579,1,100,1,100,1,1,"2019-01-01 00:00:00-05:00",""
"112P04759","I-35","NORTHBOUND","US-290/EXIT 238","TX","TRAVIS",78723,30.31125,-97.70919,30.32943,-97.70544,1.280016,309,"America/Chicago","P1.3","USA",113,1,"N",1,4384,2,NA,8,35,2,1,35,195948,5879,12657,1,100,1,100,1,1,"2019-01-01 00:00:00-05:00",""
"112+04760","I-35","NORTHBOUND","US-183/EXIT 239/EXIT 240","TX","TRAVIS",78752,30.32943,-97.70544,30.33272,-97.70402,0.243015,310,"America/Chicago","P1.3","USA",113,1,"N",1,4384,2,NA,6,35,2,1,35,199590,5988,12774,1,100,1,100,1,1,"2019-01-01 00:00:00-05:00",""
"112P04760","I-35","NORTHBOUND","US-183/EXIT 239/EXIT 240","TX","TRAVIS",78752,30.33272,-97.70402,30.33924,-97.69989,0.51337,311,"America/Chicago","P1.3","USA",113,1,"N",1,4384,2,NA,6,35,2,1,35,198349,5951,12777,1,51,1,51,1,1,"2019-01-01 00:00:00-05:00",""
"112+04761","I-35","NORTHBOUND","RUNDBERG LN","TX","TRAVIS",78753,30.33924,-97.69989,30.34039,-97.6992,0.089466,312,"America/Chicago","P1.3","USA",113,1,"N",1,4384,2,NA,6,35,2,1,35,144921,4348,12898,1,100,1,100,1,1,"2019-01-01 00:00:00-05:00",""
"112P04761","I-35","NORTHBOUND","RUNDBERG LN","TX","TRAVIS",78753,30.34039,-97.6992,30.35503,-97.69,1.150493,313,"America/Chicago","P1.3","USA",113,1,"N",1,4384,2,NA,6,35,2,1,35,144921,4348,12898,1,100,1,100,1,1,"2019-01-01 00:00:00-05:00",""
"112+04762","I-35","NORTHBOUND","BRAKER LN","TX","TRAVIS",78753,30.35503,-97.69,30.362,-97.68559,0.548593,314,"America/Chicago","P1.3","USA",113,1,"N",1,4384,2,NA,6,35,2,1,35,141159,4313,12796,1,55,1,55,1,1,"2019-01-01 00:00:00-05:00",""
"112P04762","I-35","NORTHBOUND","BRAKER LN","TX","TRAVIS",78753,30.362,-97.68559,30.37288,-97.67871,0.85619,315,"America/Chicago","P1.3","USA",113,1,"N",1,4384,2,NA,6,35,2,1,35,138212,4285,12716,1,85,1,85,1,1,"2019-01-01 00:00:00-05:00",""
"112+04763","I-35","NORTHBOUND","BERRYWOOD DR/MEADOW LARK AVE","TX","TRAVIS",78753,30.37288,-97.67871,30.37977,-97.67455,0.537579,316,"America/Chicago","P1.3","USA",113,1,"N",1,4384,2,NA,6,35,2,1,35,146349,4413,13092,1,54,1,54,1,1,"2019-01-01 00:00:00-05:00",""
"112+04764","I-35","NORTHBOUND","YAGER LN","TX","TRAVIS",78753,30.39727,-97.67236,30.40027,-97.67382,0.224794,317,"America/Chicago","P1.3","USA",113,1,"N",1,4384,2,NA,6,35,2,1,35,159068,4613,13680,1,100,1,100,1,1,"2019-01-01 00:00:00-05:00",""
"112P04763","I-35","NORTHBOUND","BERRYWOOD DR/MEADOW LARK AVE","TX","TRAVIS",78753,30.37977,-97.67455,30.39727,-97.67236,1.234393,317.001,"America/Chicago","P1.3","USA",113,1,"N",1,4384,2,NA,6,35,2,1,35,159068,4613,13680,1,100,1,100,1,1,"2019-01-01 00:00:00-05:00",""
"112+04765","I-35","NORTHBOUND","FM-734/PARMER LN/EXIT 245","TX","TRAVIS",78753,30.40407,-97.67498,30.40761,-97.67459,0.246518,318,"America/Chicago","P1.3","USA",113,1,"N",1,4384,2,NA,6,35,2,1,35,159068,4613,13680,1,100,1,100,1,1,"2019-01-01 00:00:00-05:00",""
"112P04764","I-35","NORTHBOUND","YAGER LN","TX","TRAVIS",78753,30.40027,-97.67382,30.40407,-97.67498,0.273727,318.001,"America/Chicago","P1.3","USA",113,1,"N",1,4384,2,NA,6,35,2,1,35,159068,4613,13680,1,100,1,100,1,1,"2019-01-01 00:00:00-05:00",""
"112P04765","I-35","NORTHBOUND","FM-734/PARMER LN/EXIT 245","TX","TRAVIS",78753,30.40761,-97.67459,30.41466,-97.67328,0.493244,319,"America/Chicago","P1.3","USA",113,1,"N",1,4384,2,NA,6,35,2,1,35,135265,4179,12531,1,100,1,100,1,1,"2019-01-01 00:00:00-05:00",""
"112+04766","I-35","NORTHBOUND","HOWARD LN/EXIT 246","TX","TRAVIS",78753,30.41466,-97.67328,30.42046,-97.67214,0.406395,320,"America/Chicago","P1.3","USA",113,1,"N",1,4384,2,NA,6,35,2,1,35,134176,4159,12478,1,100,1,100,1,1,"2019-01-01 00:00:00-05:00",""
"112P04766","I-35","NORTHBOUND","HOWARD LN/EXIT 246","TX","TRAVIS",78753,30.42046,-97.67214,30.42441,-97.67141,0.276338,321,"America/Chicago","P1.3","USA",113,1,"N",1,4384,2,NA,6,35,2,1,35,134172,4159,12478,1,100,1,100,1,1,"2019-01-01 00:00:00-05:00",""
"112+04767","I-35","NORTHBOUND","FM-1825","TX","TRAVIS",78660,30.42441,-97.67141,30.42582,-97.67112,0.098925,322,"America/Chicago","P1.3","USA",113,1,"N",1,4384,2,NA,6,35,2,1,35,132528,4108,12458,1,100,1,100,1,1,"2019-01-01 00:00:00-05:00",""
"112P04767","I-35","NORTHBOUND","FM-1825","TX","TRAVIS",78660,30.42582,-97.67112,30.437,-97.66902,0.782389,323,"America/Chicago","P1.3","USA",113,1,"N",1,4384,2,NA,6,35,2,1,35,132528,4108,12458,1,78,1,78,1,1,"2019-01-01 00:00:00-05:00",""
"112+04768","I-35","NORTHBOUND","GRAND AVENUE PKY","TX","TRAVIS",78660,30.437,-97.66902,30.44215,-97.66804,0.360523,324,"America/Chicago","P1.3","USA",113,1,"N",1,4384,2,NA,6,35,2,1,35,131435,4115,12396,1,100,1,100,1,1,"2019-01-01 00:00:00-05:00",""
"112P04768","I-35","NORTHBOUND","GRAND AVENUE PKY","TX","TRAVIS",78660,30.44215,-97.66804,30.46533,-97.66911,1.632538,325,"America/Chicago","P1.3","USA",113,1,"N",1,4384,2,NA,6,35,2,1,35,142627,4367,12891,1,81,1,81,1,1,"2019-01-01 00:00:00-05:00",""
"112+04769","I-35","NORTHBOUND","FM-1325/EXIT 250","TX","TRAVIS",78660,30.46533,-97.66911,30.47046,-97.67074,0.367436,326,"America/Chicago","P1.3","USA",113,1,"N",1,4384,2,NA,6,35,2,1,35,162543,4714,13816,1,100,1,100,1,1,"2019-01-01 00:00:00-05:00",""
"112-04768","I-35","SOUTHBOUND","GRAND AVENUE PKY","TX","TRAVIS",78728,30.47118,-97.67116,30.46417,-97.66892,0.502301,841,"America/Chicago","P1.3","USA",113,1,"N",1,4384,2,NA,6,35,2,1,35,162543,4714,13816,1,50,1,50,1,1,"2019-01-01 00:00:00-05:00",""
"112N04768","I-35","SOUTHBOUND","GRAND AVENUE PKY","TX","TRAVIS",78728,30.46417,-97.66892,30.44519,-97.66768,1.336384,842,"America/Chicago","P1.3","USA",113,1,"N",1,4384,2,NA,6,35,2,1,35,143605,4384,12936,1,100,1,100,1,1,"2019-01-01 00:00:00-05:00",""
"112-04767","I-35","SOUTHBOUND","FM-1825","TX","TRAVIS",78728,30.44519,-97.66768,30.43782,-97.66908,0.515939,843,"America/Chicago","P1.3","USA",113,1,"N",1,4384,2,NA,6,35,2,1,35,130348,4122,12334,1,51,1,51,1,1,"2019-01-01 00:00:00-05:00",""
"112N04767","I-35","SOUTHBOUND","FM-1825","TX","TRAVIS",78660,30.43782,-97.66908,30.42918,-97.67073,0.60489,844,"America/Chicago","P1.3","USA",113,1,"N",1,4384,2,NA,6,35,2,1,35,132528,4108,12458,1,60,1,60,1,1,"2019-01-01 00:00:00-05:00",""
"112-04766","I-35","SOUTHBOUND","HOWARD LN/EXIT 246","TX","TRAVIS",78660,30.42918,-97.67073,30.42552,-97.67142,0.256172,845,"America/Chicago","P1.3","USA",113,1,"N",1,4384,2,NA,6,35,2,1,35,132528,4108,12458,1,100,1,100,1,1,"2019-01-01 00:00:00-05:00",""
"112N04766","I-35","SOUTHBOUND","HOWARD LN/EXIT 246","TX","TRAVIS",78660,30.42552,-97.67142,30.42423,-97.67167,0.090351,846,"America/Chicago","P1.3","USA",113,1,"N",1,4384,2,NA,6,35,2,1,35,132806,4117,12461,1,100,1,100,1,1,"2019-01-01 00:00:00-05:00",""
"112-04765","I-35","SOUTHBOUND","FM-734/PARMER LN/EXIT 245","TX","TRAVIS",78753,30.42423,-97.67167,30.42188,-97.67212,0.164537,847,"America/Chicago","P1.3","USA",113,1,"N",1,4384,2,NA,6,35,2,1,35,134176,4159,12478,1,100,1,100,1,1,"2019-01-01 00:00:00-05:00",""
"112N04765","I-35","SOUTHBOUND","FM-734/PARMER LN/EXIT 245","TX","TRAVIS",78753,30.42188,-97.67212,30.40782,-97.67478,0.984135,848,"America/Chicago","P1.3","USA",113,1,"N",1,4384,2,NA,6,35,2,1,35,134176,4159,12478,1,98,1,98,1,1,"2019-01-01 00:00:00-05:00",""
"112-04764","I-35","SOUTHBOUND","YAGER LN","TX","TRAVIS",78753,30.40782,-97.67478,30.40414,-97.67519,0.256067,849,"America/Chicago","P1.3","USA",113,1,"N",1,4384,2,NA,6,35,2,1,35,159068,4613,13680,1,100,1,100,1,1,"2019-01-01 00:00:00-05:00",""
"112N04764","I-35","SOUTHBOUND","YAGER LN","TX","TRAVIS",78753,30.40414,-97.67519,30.40144,-97.67462,0.190156,849.001,"America/Chicago","P1.3","USA",113,1,"N",1,4384,2,NA,6,35,2,1,35,159068,4613,13680,1,100,1,100,1,1,"2019-01-01 00:00:00-05:00",""
"112-04763","I-35","SOUTHBOUND","BERRYWOOD DR/MEADOW LARK AVE","TX","TRAVIS",78753,30.40144,-97.67462,30.38565,-97.67321,1.130778,850,"America/Chicago","P1.3","USA",113,1,"N",1,4384,2,NA,6,35,2,1,35,159068,4613,13680,1,100,1,100,1,1,"2019-01-01 00:00:00-05:00",""
"112-04762","I-35","SOUTHBOUND","BRAKER LN","TX","TRAVIS",78753,30.37357,-97.67842,30.37064,-97.68028,0.230779,851,"America/Chicago","P1.3","USA",113,1,"N",1,4384,2,NA,6,35,2,1,35,138212,4285,12716,1,100,1,100,1,1,"2019-01-01 00:00:00-05:00",""
"112N04763","I-35","SOUTHBOUND","BERRYWOOD DR/MEADOW LARK AVE","TX","TRAVIS",78753,30.38565,-97.67321,30.37357,-97.67842,0.898724,851.001,"America/Chicago","P1.3","USA",113,1,"N",1,4384,2,NA,6,35,2,1,35,152587,4511,13380,1,90,1,90,1,1,"2019-01-01 00:00:00-05:00",""
"112N04762","I-35","SOUTHBOUND","BRAKER LN","TX","TRAVIS",78753,30.37064,-97.68028,30.36173,-97.68592,0.701333,852,"America/Chicago","P1.3","USA",113,1,"N",1,4384,2,NA,6,35,2,1,35,138212,4285,12716,1,70,1,70,1,1,"2019-01-01 00:00:00-05:00",""
"112-04761","I-35","SOUTHBOUND","RUNDBERG LN","TX","TRAVIS",78753,30.36173,-97.68592,30.35193,-97.69213,0.77162,853,"America/Chicago","P1.3","USA",113,1,"N",1,4384,2,NA,6,35,2,1,35,142483,4325,12832,1,77,1,77,1,1,"2019-01-01 00:00:00-05:00",""
"112N04761","I-35","SOUTHBOUND","RUNDBERG LN","TX","TRAVIS",78753,30.35193,-97.69213,30.34183,-97.69855,0.795791,854,"America/Chicago","P1.3","USA",113,1,"N",1,4384,2,NA,6,35,2,1,35,144921,4348,12898,1,79,1,79,1,1,"2019-01-01 00:00:00-05:00",""
"112-04760","I-35","SOUTHBOUND","US-183/EXIT 239/EXIT 240","TX","TRAVIS",78753,30.34183,-97.69855,30.34049,-97.6994,0.105534,855,"America/Chicago","P1.3","USA",113,1,"N",1,4384,2,NA,6,35,2,1,35,144921,4348,12898,1,100,1,100,1,1,"2019-01-01 00:00:00-05:00",""
"112N04760","I-35","SOUTHBOUND","US-183/EXIT 239/EXIT 240","TX","TRAVIS",78752,30.34049,-97.6994,30.33493,-97.70296,0.438897,856,"America/Chicago","P1.3","USA",113,1,"N",1,4384,2,NA,6,35,2,1,35,187299,5619,12802,1,100,1,100,1,1,"2019-01-01 00:00:00-05:00",""
"112-04759","I-35","SOUTHBOUND","US-290/EXIT 238","TX","TRAVIS",78752,30.33493,-97.70296,30.32984,-97.70559,0.386148,857,"America/Chicago","P1.3","USA",113,1,"N",1,4384,2,NA,6,35,2,1,35,199590,5988,12774,1,100,1,100,1,1,"2019-01-01 00:00:00-05:00",""
"112N04759","I-35","SOUTHBOUND","US-290/EXIT 238","TX","TRAVIS",78723,30.32984,-97.70559,30.31407,-97.70817,1.101294,858,"America/Chicago","P1.3","USA",113,1,"N",1,4384,2,NA,8,35,2,1,35,196489,5895,12674,1,100,1,100,1,1,"2019-01-01 00:00:00-05:00",""
"112-04758","I-35","SOUTHBOUND","51ST ST/CAMERON RD/EXIT 237","TX","TRAVIS",78723,30.31407,-97.70817,30.31156,-97.70923,0.18479,859,"America/Chicago","P1.3","USA",113,1,"N",1,4384,2,NA,8,35,2,1,35,193522,5806,12579,1,100,1,100,1,1,"2019-01-01 00:00:00-05:00",""
"112N04758","I-35","SOUTHBOUND","51ST ST/CAMERON RD/EXIT 237","TX","TRAVIS",78723,30.31156,-97.70923,30.30754,-97.7117,0.314569,859.5,"America/Chicago","P1.3","USA",113,1,"N",1,4384,2,NA,8,35,2,1,35,194725,5842,12657,1,100,1,100,1,1,"2019-01-01 00:00:00-05:00",""
"112-04757","I-35","SOUTHBOUND","AIRPORT BLVD/EXIT 236/EXIT 237","TX","TRAVIS",78723,30.30754,-97.7117,30.30533,-97.71316,0.175769,860,"America/Chicago","P1.3","USA",113,1,"N",1,4384,2,NA,8,35,2,1,35,195900,5877,12734,1,100,1,100,1,1,"2019-01-01 00:00:00-05:00",""
"112N04757","I-35","SOUTHBOUND","AIRPORT BLVD/EXIT 236/EXIT 237","TX","TRAVIS",78723,30.30533,-97.71316,30.30136,-97.71568,0.312834,861,"America/Chicago","P1.3","USA",113,1,"N",1,4384,2,NA,8,35,2,1,35,196794,5904,12762,1,100,1,100,1,1,"2019-01-01 00:00:00-05:00",""
"112N04900","I-35","SOUTHBOUND","TX-111-LOOP/AIRPORT/EXIT 237","TX","TRAVIS",78722,30.30211,-97.71519,30.30031,-97.71644,0.145179,863,"America/Chicago","P1.3","USA",112,1,"N",1,4384,2,1,8,35,2,1,35,201423,6042,12909,1,100,1,100,1,1,"2019-01-01 00:00:00-05:00",""
"112-04899","I-35","SOUTHBOUND","HANCOCK CTR/EXIT 237","TX","TRAVIS",78722,30.30031,-97.71644,30.29887,-97.7173,0.111973,864,"America/Chicago","P1.3","USA",112,1,"N",1,4384,2,1,8,35,2,1,35,201974,6059,12926,1,100,1,100,1,1,"2019-01-01 00:00:00-05:00",""
"112N04899","I-35","SOUTHBOUND","HANCOCK CTR/EXIT 237","TX","TRAVIS",78722,30.29887,-97.7173,30.29741,-97.71821,0.114536,865,"America/Chicago","P1.3","USA",112,1,"N",1,4384,2,1,8,35,2,1,35,201974,6059,12926,1,100,1,100,1,1,"2019-01-01 00:00:00-05:00",""
"112-04898","I-35","SOUTHBOUND","38 1/2 ST/EXIT 236","TX","TRAVIS",78722,30.29741,-97.71821,30.29491,-97.71972,0.194794,866,"America/Chicago","P1.3","USA",112,1,"N",1,4384,2,1,8,35,2,1,35,201974,6059,12926,1,100,1,100,1,1,"2019-01-01 00:00:00-05:00",""
"112N04898","I-35","SOUTHBOUND","38 1/2 ST/EXIT 236","TX","TRAVIS",78722,30.29491,-97.71972,30.29112,-97.72213,0.298716,866.5,"America/Chicago","P1.3","USA",112,1,"N",1,4384,2,1,8,35,2,1,35,201974,6059,12926,1,100,1,100,1,1,"2019-01-01 00:00:00-05:00",""
"112-04897","I-35","SOUTHBOUND","26TH ST/NB EXIT 236/SB EXIT 235","TX","TRAVIS",78722,30.29112,-97.72213,30.28791,-97.7242,0.253871,867,"America/Chicago","P1.3","USA",112,1,"N",1,4384,2,1,8,35,2,1,35,201974,6059,12926,1,100,1,100,1,1,"2019-01-01 00:00:00-05:00",""
"112N04897","I-35","SOUTHBOUND","26TH ST/NB EXIT 236/SB EXIT 235","TX","TRAVIS",78722,30.28791,-97.7242,30.28561,-97.72569,0.182071,868,"America/Chicago","P1.3","USA",112,1,"N",1,4384,2,1,8,35,2,1,35,201974,6059,12926,1,100,1,100,1,1,"2019-01-01 00:00:00-05:00",""
"112-04896","I-35","SOUTHBOUND","MANOR RD/EXIT 235","TX","TRAVIS",78722,30.28561,-97.72569,30.28459,-97.72636,0.081008,869,"America/Chicago","P1.3","USA",112,1,"N",1,4384,2,1,8,35,2,1,35,201974,6059,12926,1,100,1,100,1,1,"2019-01-01 00:00:00-05:00",""
"112N04896","I-35","SOUTHBOUND","MANOR RD/EXIT 235","TX","TRAVIS",78722,30.28459,-97.72636,30.28303,-97.7274,0.124357,874,"America/Chicago","P1.3","USA",112,1,"N",1,4384,2,1,8,35,2,1,35,201974,6059,12926,1,100,1,100,1,1,"2019-01-01 00:00:00-05:00",""
"112-04895","I-35","SOUTHBOUND","M L K JR BLVD/EXIT 235","TX","TRAVIS",78722,30.28303,-97.7274,30.28293,-97.72746,0.00778,879,"America/Chicago","P1.3","USA",112,1,"N",1,4384,2,1,8,35,2,1,35,201974,6059,12926,1,100,1,100,1,1,"2019-01-01 00:00:00-05:00",""
"112N04895","I-35","SOUTHBOUND","M L K JR BLVD/EXIT 235","TX","TRAVIS",78722,30.28293,-97.72746,30.27849,-97.73,0.343284,880,"America/Chicago","P1.3","USA",112,1,"N",1,4384,2,NA,8,35,2,1,35,201824,6056,12921,1,100,1,100,1,1,"2019-01-01 00:00:00-05:00",""
"112-05046","I-35","SOUTHBOUND","12TH ST/15TH ST/EXIT 234/EXIT 235","TX","TRAVIS",78701,30.27732,-97.73056,30.27474,-97.73149,0.186851,881,"America/Chicago","P1.3","USA",95,1,"N",1,4384,2,NA,8,35,2,1,35,176987,5487,12035,1,100,1,100,1,1,"2019-01-01 00:00:00-05:00",""
"112N05047","I-35","SOUTHBOUND","M L K JR BLVD/EXIT 235","TX","TRAVIS",78701,30.27849,-97.73,30.27732,-97.73056,0.087456,881.001,"America/Chicago","P1.3","USA",95,1,"N",1,4384,2,NA,8,35,2,1,35,176987,5487,12035,1,100,1,100,1,1,"2019-01-01 00:00:00-05:00",""
"112N05046","I-35","SOUTHBOUND","12TH ST/15TH ST/EXIT 234/EXIT 235","TX","TRAVIS",78701,30.27474,-97.73149,30.27184,-97.73244,0.208223,882,"America/Chicago","P1.3","USA",95,1,"N",1,4384,2,NA,8,35,2,1,35,176987,5487,12035,1,100,1,100,1,1,"2019-01-01 00:00:00-05:00",""
"112-05045","I-35","SOUTHBOUND","8TH ST/EXIT 234","TX","TRAVIS",78701,30.27184,-97.73244,30.27029,-97.733,0.112168,883,"America/Chicago","P1.3","USA",95,1,"N",1,4384,2,NA,8,35,2,1,35,176987,5487,12035,1,100,1,100,1,1,"2019-01-01 00:00:00-05:00",""
"112N05045","I-35","SOUTHBOUND","8TH ST/EXIT 234","TX","TRAVIS",78701,30.27029,-97.733,30.26763,-97.73399,0.193019,884,"America/Chicago","P1.3","USA",95,1,"N",1,4384,2,NA,8,35,2,1,35,176987,5487,12035,1,100,1,100,1,1,"2019-01-01 00:00:00-05:00",""
"112-05044","I-35","SOUTHBOUND","7TH ST/EXIT 234","TX","TRAVIS",78701,30.26763,-97.73399,30.26673,-97.73432,0.065218,885,"America/Chicago","P1.3","USA",95,1,"N",1,4384,2,1,8,35,2,1,35,176139,5475,11998,1,100,1,100,1,1,"2019-01-01 00:00:00-05:00",""
"112N05044","I-35","SOUTHBOUND","7TH ST/EXIT 234","TX","TRAVIS",78701,30.26673,-97.73432,30.26435,-97.7352,0.172592,886,"America/Chicago","P1.3","USA",95,1,"N",1,4384,2,1,8,35,2,1,35,157878,5210,11209,1,100,1,100,1,1,"2019-01-01 00:00:00-05:00",""
"112-05043","I-35","SOUTHBOUND","TX-343-LOOP/1ST ST/EXIT 234","TX","TRAVIS",78701,30.26435,-97.7352,30.2625,-97.73596,0.135654,887,"America/Chicago","P1.3","USA",95,1,"N",1,4384,2,NA,8,35,2,1,35,157878,5210,11209,1,100,1,100,1,1,"2019-01-01 00:00:00-05:00",""
"112N05043","I-35","SOUTHBOUND","TX-343-LOOP/1ST ST/EXIT 234","TX","TRAVIS",78701,30.2625,-97.73596,30.25799,-97.73724,0.32288,888,"America/Chicago","P1.3","USA",95,1,"N",1,4384,2,NA,8,35,2,1,35,147101,5058,10851,1,100,1,100,1,1,"2019-01-01 00:00:00-05:00",""
"112-05042","I-35","SOUTHBOUND","RIVERSIDE DR/EXIT 233","TX","TRAVIS",78701,30.25799,-97.73724,30.25716,-97.7372,0.057435,889,"America/Chicago","P1.3","USA",95,1,"N",1,4384,2,NA,8,35,2,1,35,142766,4997,10707,1,100,1,100,1,1,"2019-01-01 00:00:00-05:00",""
"112N05042","I-35","SOUTHBOUND","RIVERSIDE DR/EXIT 233","TX","TRAVIS",78701,30.25716,-97.7372,30.24835,-97.73547,0.617407,890,"America/Chicago","P1.3","USA",95,1,"N",1,4384,2,NA,6,35,2,1,35,142766,4997,10707,1,62,1,62,1,1,"2019-01-01 00:00:00-05:00",""
"112-05041","I-35","SOUTHBOUND","WOODLAND AVE","TX","TRAVIS",78704,30.24835,-97.73547,30.24645,-97.73508,0.133312,891,"America/Chicago","P1.3","USA",95,1,"N",1,4384,2,NA,6,35,2,1,35,150244,4665,11387,1,100,1,100,1,1,"2019-01-01 00:00:00-05:00",""
"112N05041","I-35","SOUTHBOUND","WOODLAND AVE","TX","TRAVIS",78704,30.24645,-97.73508,30.24187,-97.73642,0.33411,891.5,"America/Chicago","P1.3","USA",95,1,"N",1,4384,2,NA,6,35,2,1,35,152367,4571,11580,1,100,1,100,1,1,"2019-01-01 00:00:00-05:00",""
"112-05040","I-35","SOUTHBOUND","OLTORF ST/EXIT 232","TX","TRAVIS",78704,30.24187,-97.73642,30.23834,-97.73852,0.274179,892,"America/Chicago","P1.3","USA",95,1,"N",1,4384,2,NA,6,35,2,1,35,152367,4571,11580,1,100,1,100,1,1,"2019-01-01 00:00:00-05:00",""
"112N05040","I-35","SOUTHBOUND","OLTORF ST/EXIT 232","TX","TRAVIS",78704,30.23834,-97.73852,30.23471,-97.74071,0.282792,893,"America/Chicago","P1.3","USA",95,1,"N",1,4384,2,NA,6,35,2,1,35,152367,4571,11580,1,100,1,100,1,1,"2019-01-01 00:00:00-05:00",""
"112-05039","I-35","SOUTHBOUND","WOODWARD ST","TX","TRAVIS",78704,30.23471,-97.74071,30.2319,-97.74237,0.217957,894,"America/Chicago","P1.3","USA",95,1,"N",1,4384,2,NA,6,35,2,1,35,158924,4658,11858,1,100,1,100,1,1,"2019-01-01 00:00:00-05:00",""
"112N05039","I-35","SOUTHBOUND","WOODWARD ST","TX","TRAVIS",78704,30.2319,-97.74237,30.22674,-97.74546,0.401341,894.5,"America/Chicago","P1.3","USA",95,1,"N",1,4384,2,NA,6,35,2,1,35,162027,4699,11990,1,100,1,100,1,1,"2019-01-01 00:00:00-05:00",""
"112-05038","I-35","SOUTHBOUND","TX-71/BEN WHITE BLVD/EXIT 230","TX","TRAVIS",78704,30.22674,-97.74546,30.22519,-97.74641,0.121164,895,"America/Chicago","P1.3","USA",95,1,"N",1,4384,2,NA,6,35,2,1,35,162027,4699,11990,1,100,1,100,1,1,"2019-01-01 00:00:00-05:00",""
"112N05038","I-35","SOUTHBOUND","TX-71/BEN WHITE BLVD/EXIT 230","TX","TRAVIS",78704,30.22519,-97.74641,30.21827,-97.75042,0.534692,896,"America/Chicago","P1.3","USA",95,1,"N",1,4384,2,NA,6,35,2,1,35,162027,4699,11990,1,53,1,53,1,1,"2019-01-01 00:00:00-05:00",""
"112-05037","I-35","SOUTHBOUND","SHELBY LN/ST ELMO RD/EXIT 230","TX","TRAVIS",78704,30.21827,-97.75042,30.21478,-97.75253,0.2721,897,"America/Chicago","P1.3","USA",95,1,"N",1,4384,2,NA,6,35,2,1,35,157576,4187,12734,1,100,1,100,1,1,"2019-01-01 00:00:00-05:00",""
"112N05037","I-35","SOUTHBOUND","SHELBY LN/ST ELMO RD/EXIT 230","TX","TRAVIS",78745,30.21478,-97.75253,30.20698,-97.75738,0.611825,898,"America/Chicago","P1.3","USA",95,1,"N",1,4384,2,NA,6,35,2,1,35,153131,3675,13476,1,61,1,61,1,1,"2019-01-01 00:00:00-05:00",""
"112-05036","I-35","SOUTHBOUND","STASSNEY LN","TX","TRAVIS",78745,30.20698,-97.75738,30.20394,-97.7598,0.254937,899,"America/Chicago","P1.3","USA",95,1,"N",1,4384,2,NA,6,35,2,1,35,153131,3675,13476,1,100,1,100,1,1,"2019-01-01 00:00:00-05:00",""
"112N05036","I-35","SOUTHBOUND","STASSNEY LN","TX","TRAVIS",78745,30.20394,-97.7598,30.19886,-97.76396,0.429928,900,"America/Chicago","P1.3","USA",95,1,"N",1,4384,2,NA,6,35,2,1,35,153131,3675,13476,1,100,1,100,1,1,"2019-01-01 00:00:00-05:00",""
"112-05035","I-35","SOUTHBOUND","WILLIAM CANNON DR/EXIT 228/EXIT 229","TX","TRAVIS",78745,30.19886,-97.76396,30.19592,-97.76631,0.24689,901,"America/Chicago","P1.3","USA",95,1,"N",1,4384,2,NA,6,35,2,1,35,173838,4014,14506,1,100,1,100,1,1,"2019-01-01 00:00:00-05:00",""
"112N05035","I-35","SOUTHBOUND","WILLIAM CANNON DR/EXIT 228/EXIT 229","TX","TRAVIS",78745,30.19592,-97.76631,30.18596,-97.7738,0.820969,902,"America/Chicago","P1.3","USA",95,1,"N",1,4384,2,NA,6,35,2,1,35,165514,3876,14082,1,82,1,82,1,1,"2019-01-01 00:00:00-05:00",""
"112-05034","I-35","SOUTHBOUND","SLAUGHTER LN/EXIT 226","TX","TRAVIS",78745,30.18596,-97.7738,30.17271,-97.78249,1.052192,903,"America/Chicago","P1.3","USA",95,1,"N",1,4384,2,NA,6,35,2,1,35,152563,3662,13426,1,100,1,100,1,1,"2019-01-01 00:00:00-05:00",""
"112N05034","I-35","SOUTHBOUND","SLAUGHTER LN/EXIT 226","TX","TRAVIS",78745,30.17271,-97.78249,30.16862,-97.78517,0.324724,904,"America/Chicago","P1.3","USA",95,1,"N",1,4384,2,NA,6,35,2,1,35,152563,3662,13426,1,100,1,100,1,1,"2019-01-01 00:00:00-05:00",""
"112-05033","I-35","SOUTHBOUND","BRANDT RD/TURK LN","TX","TRAVIS",78748,30.16862,-97.78517,30.16421,-97.78785,0.344383,905,"America/Chicago","P1.3","USA",95,1,"N",1,4384,2,NA,6,35,2,1,35,135556,3418,12671,1,100,1,100,1,1,"2019-01-01 00:00:00-05:00",""
"112N05033","I-35","SOUTHBOUND","BRANDT RD/TURK LN","TX","TRAVIS",78748,30.16421,-97.78785,30.15528,-97.79102,0.646512,906,"America/Chicago","P1.3","USA",95,1,"N",1,4384,2,NA,6,35,2,1,35,126468,3288,12267,1,64,1,64,1,1,"2019-01-01 00:00:00-05:00",""
"112-05032","I-35","SOUTHBOUND","FM-1626/CROWN COLONY DR","TX","TRAVIS",78748,30.15528,-97.79102,30.14879,-97.79301,0.463886,907,"America/Chicago","P1.3","USA",95,1,"N",1,4384,2,NA,6,35,2,1,35,126468,3288,12267,1,100,1,100,1,1,"2019-01-01 00:00:00-05:00",""
"112N05032","I-35","SOUTHBOUND","FM-1626/CROWN COLONY DR","TX","TRAVIS",78748,30.14879,-97.79301,30.13811,-97.79692,0.773916,908,"America/Chicago","P1.3","USA",95,1,"N",1,4384,2,NA,6,35,2,1,35,126468,3288,12267,1,77,1,77,1,1,"2019-01-01 00:00:00-05:00",""
"112-05031","I-35","SOUTHBOUND","ONION CREEK PKY/EXIT 225","TX","TRAVIS",78748,30.13811,-97.79692,30.13745,-97.79722,0.04899,909,"America/Chicago","P1.3","USA",95,1,"N",1,4384,2,NA,6,35,2,1,35,126468,3288,12267,1,100,1,100,1,1,"2019-01-01 00:00:00-05:00",""
"112N05031","I-35","SOUTHBOUND","ONION CREEK PKY/EXIT 225","TX","TRAVIS",78748,30.13745,-97.79722,30.12922,-97.80043,0.60003,910,"America/Chicago","P1.3","USA",95,1,"N",1,4384,2,NA,6,35,2,1,35,132876,3455,12511,1,60,1,60,1,1,"2019-01-01 00:00:00-05:00",""
"112-05030","I-35","SOUTHBOUND","TX-45-TOLL/FM-1327/EXIT 223","TX","TRAVIS",78610,30.12922,-97.80043,30.1193,-97.80438,0.724803,911,"America/Chicago","P1.3","USA",95,1,"N",1,4384,2,NA,6,35,2,1,35,133258,3465,12526,1,72,1,72,1,1,"2019-01-01 00:00:00-05:00",""
"112N05030","I-35","SOUTHBOUND","TX-45-TOLL/FM-1327/EXIT 223","TX","TRAVIS",78610,30.1193,-97.80438,30.1099,-97.80831,0.690664,912,"America/Chicago","P1.3","USA",95,1,"N",1,4384,2,NA,6,35,2,1,35,132625,3449,12515,1,69,1,69,1,1,"2019-01-01 00:00:00-05:00",""
"112-05029","I-35","SOUTHBOUND","TX-4-LOOP/EXIT 221","TX","TRAVIS",78610,30.1099,-97.80831,30.09871,-97.81356,0.834342,913,"America/Chicago","P1.3","USA",95,1,"N",1,4384,2,NA,6,35,2,1,35,131526,3420,12495,1,83,1,83,1,1,"2019-01-01 00:00:00-05:00",""
